<svg width="20" height="20" viewBox="0 0 20 20" fill="none" xmlns="http://www.w3.org/2000/svg">
<path d="M10.6834 4.64975L9.99945 5.33518L9.31341 4.64913C7.56419 2.89991 4.72813 2.89991 2.97891 4.64913C1.22969 6.39836 1.22969 9.23441 2.97891 10.9836L9.55838 17.5631C9.80246 17.8072 10.1982 17.8072 10.4423 17.5631L17.0268 10.9824C18.7722 9.22739 18.7751 6.39929 17.0256 4.64975C15.2732 2.89735 12.4358 2.89735 10.6834 4.64975ZM16.1405 10.101L10.0003 16.2373L3.86279 10.0998C2.60173 8.83868 2.60173 6.79409 3.86279 5.53302C5.12386 4.27195 7.16846 4.27195 8.42952 5.53302L9.56073 6.66422C9.80895 6.91244 10.2129 6.90761 10.4551 6.65351L11.5673 5.53364C12.8315 4.26939 14.8775 4.26939 16.1417 5.53364C17.4031 6.79501 17.4009 8.83354 16.1405 10.101Z" fill="#0A0A28"/>
</svg>
