<svg width="88" height="98" viewBox="0 0 88 98" fill="none" xmlns="http://www.w3.org/2000/svg">
<path d="M70.183 83.9637C79.4376 84.7682 96.1957 72.1251 83.3051 53.4448C69.9642 31.7999 92.7405 16.3147 73.9835 4.32235C60.3873 -4.37039 44.0446 14.4115 33.1028 10.6827C9.76199 4.32235 -5.00836 27.82 5.28502 42.7593C12.9768 53.9227 -5.67823 61.5934 1.8115 70.4339C10.1479 80.2737 16.754 69.6367 28.9821 71.8636C46.7356 75.0968 59.4601 83.0316 70.183 83.9637Z" fill="#3FA1D9"/>
<path d="M53.6377 3.20365L53.8036 3.30254L53.9677 3.40243C56.282 4.82522 57.4582 5.61605 60.5 9C67.0884 16.3295 72.509 22.644 78.5 30.5L79.5 31.5L80 32.5C82.2298 35.4507 81.4288 38.9264 81.4838 41.2019C81.5246 42.8848 83.2515 44.0155 81.9991 45.3191L81.9315 45.3886L81.9249 45.3945L81.9041 45.4174C81.6063 45.7372 81.2728 46.0214 80.9092 46.2635L80.8118 46.3267L80.7814 46.348C79.2485 47.3933 77.4434 47.8274 75.7602 47.5067L75.6701 47.4888L75.597 47.473L75.5876 47.5374C73.8817 58.7861 70.4044 69.7643 65.3237 79.9442L65.1692 80.2525L65.0106 80.5665L64.9196 80.7447L64.8266 80.9234C64.3552 81.8203 64.0136 82.3161 63.5031 82.7713C62.7895 83.4075 61.885 83.7622 60.7688 83.9064C59.9785 84.0085 59.2348 84.0076 57.9793 83.9358L57.759 83.9228C52.7198 83.6171 47.6601 83.6189 42.6178 83.928L42.1451 83.9578L41.7546 83.9836L41.6976 83.9898C40.9347 84.0708 40.2428 84.1289 39.5808 84.1652L39.4159 84.1738L39.2313 84.182L39.1976 84.185C38.4122 84.2549 37.6277 84.3323 36.8441 84.4171L35.5081 84.5682L34.3835 84.6971L33.8886 84.7511C33.7356 84.7673 33.5924 84.782 33.4528 84.7957L32.9237 84.8449L32.8864 84.8729C32.8678 84.8864 32.8488 84.8996 32.8294 84.9124L32.7703 84.9503L32.7087 84.9866L32.5093 85.0946L32.3757 84.9947L32.3372 84.9643L32.3006 84.9318L32.2662 84.8977L32.1777 84.9042C30.2557 85.0376 28.6594 84.9885 27.1536 84.7006L27.017 84.6737L26.8847 84.6464C23.4726 83.9239 20.6427 81.6847 19.9015 78.764C17.1084 67.7583 13.2009 57.0356 8.25855 46.813L8.19134 46.6746L8.15864 46.694C6.98652 47.3581 5.51376 47.1953 4.21662 46.3536L4.14969 46.3094L4.08171 46.263L4.06601 46.2563C3.65922 46.076 3.29796 45.752 3.04034 45.3449L3.00425 45.2862L2.97871 45.2297L2.9691 45.2338C2.54914 44.7184 2.23833 44.1402 2.06457 43.538L2.03954 43.4475L2.01658 43.3567C1.46026 41.0464 2.17585 38.6658 3.92759 35.6457C4.43661 34.7681 7.53074 29.5934 11.6803 27.1376C16.245 24.436 15.3951 24.6752 16.3756 23.8335C17.1348 22.8772 14.0873 17.387 11.3961 14.6169C8.70491 11.8469 19.2979 9.02894 20.1215 9.33348C20.3373 9.41329 20.5365 9.51212 20.7207 9.62998L20.7987 9.68166L20.8072 9.68761L20.8281 9.63405L20.8894 9.74674L20.9197 9.7692C21.2923 10.0532 21.5978 10.4253 21.8519 10.8855L21.8989 10.9729L21.9379 11.0487C22.2243 11.6168 22.7817 11.9043 23.0475 12.9649L23.2279 13.6987L23.2795 13.9052L23.33 14.102C23.5382 14.9028 23.9171 15.4692 24.1497 15.9507L24.1778 16.0082L24.1921 16.0366L24.2572 15.9506C28.0994 10.8928 32.5289 6.9826 38.1821 4.09003L38.1411 4.09095C37.5162 4.09095 39.1501 3.35469 43.2839 1.89171L43.5186 1.80946L43.761 1.72615C46.815 0.687288 50.4306 1.31095 53.6377 3.20365Z" fill="white"/>
<path d="M76.432 47.0723L76.342 47.0544L76.2689 47.0386L76.2594 47.1029C74.5536 58.3517 71.0763 69.3299 65.9955 79.5098L65.8411 79.818L65.6825 80.132L65.5914 80.3102C65.0704 81.3216 64.7184 81.8523 64.175 82.3368C63.4614 82.9731 62.5569 83.3277 61.4406 83.472C60.6503 83.5741 60.0991 83.2526 58.0835 83.0701C64.9412 79.3294 66.0037 72.257 68.4023 67.6568C75.3691 54.2951 71.0459 50.659 76.432 47.0723Z" fill="#F6F7FA"/>
<path d="M45.7596 96.3007C45.6699 96.5136 45.3804 96.5945 45.2036 96.456C45.311 96.3059 45.4235 96.1512 45.5806 96.0636C45.7377 95.9759 45.9529 95.9755 46.0731 96.1142C45.9804 96.1823 45.8878 96.2504 45.7951 96.3185L45.7596 96.3007Z" fill="#0A0A28"/>
<path d="M45.8231 96.9909C45.6166 97.0094 45.4101 97.0278 45.2036 97.0463C45.294 96.9312 45.3843 96.8161 45.4747 96.701C45.5933 96.6957 45.7225 96.6931 45.8182 96.7538C45.9138 96.8145 45.9344 96.9647 45.8275 97.0094L45.8231 96.9909Z" fill="#0A0A28"/>
<path d="M52.5814 88.5251C52.4862 88.4804 52.492 88.3544 52.5497 88.2746C52.6073 88.1947 52.6998 88.1369 52.7533 88.0549C52.8105 87.9673 52.8171 87.8622 52.8223 87.7614C52.8391 87.4363 52.8558 87.1112 52.8726 86.7861C53.0379 87.0542 53.0702 87.3823 52.9598 87.6711C53.1272 87.6459 53.3082 87.7303 53.3773 87.8658C53.1295 88.1009 52.8633 88.3214 52.5814 88.5251Z" fill="#0A0A28"/>
<path d="M52.3121 88.3512C52.044 88.2974 51.8279 88.0497 51.812 87.7779C51.9965 87.8471 52.2045 87.7105 52.2937 87.5354C52.3829 87.3603 52.3887 87.1569 52.4156 86.9624C52.4767 86.5198 52.6578 86.0942 52.9347 85.7427C53.1046 86.0154 53.0393 86.4091 52.7902 86.6128C52.4072 86.9259 52.7506 87.6182 52.4464 88.0078C52.3641 88.1132 52.2321 88.2441 52.3121 88.3512Z" fill="#0A0A28"/>
<path d="M22.0751 22.8413C20.9165 24.0914 18.8881 24.6344 17.4372 23.7372C16.2499 23.003 15.737 21.5786 15.1745 20.304C14.5967 18.9949 13.886 17.7441 13.0566 16.577C12.505 15.8007 11.717 14.9821 10.7715 15.1129C10.9502 14.8027 11.3878 14.7238 11.7252 14.8457C12.0626 14.9677 12.3202 15.2397 12.5559 15.5094C13.7428 16.868 14.7189 18.4091 15.4389 20.0613C15.7931 20.874 16.0901 21.7213 16.591 22.4533C17.092 23.1854 17.8455 23.8055 18.7298 23.8978C19.4984 23.978 20.2455 23.6565 20.951 23.3422C21.3257 23.1752 21.7004 23.0083 22.0751 22.8413Z" fill="#0A0A28"/>
<path d="M35.027 94.793C36.2037 94.2281 37.5453 94.1745 38.8452 94.1308C40.5487 94.0735 42.2739 94.0181 43.9372 94.3979C44.5093 94.5285 45.1814 94.8479 45.2014 95.4455C45.2213 96.043 45.1213 96.6444 44.9092 97.2017C44.6528 96.7277 43.9906 96.7456 43.465 96.8219C40.6648 97.2285 37.7847 97.4669 35.0294 96.8153C34.7049 96.7385 34.3524 96.6273 34.1768 96.3386C34.0037 96.054 34.064 95.668 34.2512 95.3928C34.4384 95.1177 34.7299 94.9356 35.027 94.793ZM38.3091 96.6962C37.4166 96.6277 36.5258 96.5346 35.6382 96.417C35.3775 96.3824 35.1076 96.3422 34.8872 96.1961C34.6669 96.0499 34.5112 95.7662 34.593 95.5114C34.3345 95.5641 34.2697 95.9498 34.4253 96.1668C34.5808 96.3838 34.8561 96.4668 35.1128 96.5279C37.8874 97.1879 40.7848 96.8676 43.6156 96.5386C44.183 96.4727 44.8972 96.263 44.9486 95.6829C45.0019 95.0815 44.2852 94.7504 43.7029 94.6413C41.3363 94.1978 38.9021 94.3705 36.5114 94.6484C36.1457 94.6909 35.7715 94.7385 35.4438 94.9094C35.1161 95.0803 34.8392 95.402 34.822 95.7769C35.6567 96.4222 36.8316 96.1971 37.8625 96.3862C38.0513 96.4208 38.2714 96.5044 38.3091 96.6962Z" fill="#0A0A28"/>
<path d="M35.595 71.5191C35.7848 71.7187 35.8671 72.0122 35.7768 72.266C35.6866 72.5198 35.4131 72.7138 35.1285 72.6993C34.8438 72.6847 34.5855 72.4421 34.5965 72.1748C34.611 71.825 34.7061 71.3813 35.0725 71.3157C35.2662 71.2811 35.4636 71.381 35.595 71.5191ZM34.9769 72.0242C34.8328 72.2102 35.123 72.4848 35.3504 72.3993C35.5779 72.3139 35.6439 72.0183 35.5405 71.8098C35.5078 71.7441 35.4609 71.6826 35.3955 71.6437C35.1827 71.5173 34.8635 71.7719 34.9622 71.9894L34.9769 72.0242Z" fill="#0A0A28"/>
<path d="M44.5715 91.3115C44.4925 91.2576 44.4135 91.2037 44.3345 91.1498C44.5667 90.5994 44.6031 89.9682 44.4357 89.3945C45.1595 89.7103 44.4454 91.1565 45.1577 91.4975C45.2007 90.8355 45.7221 90.2823 46.3242 90.0079C46.9264 89.7336 47.6028 89.6854 48.2626 89.6413C50.7837 89.4727 53.365 89.3101 55.7933 90.0105C56.2599 90.1451 56.7942 90.4011 56.8507 90.8847C56.907 91.3663 56.4421 91.7449 55.9946 91.9282C55.2753 92.2229 54.4842 92.2814 53.7078 92.3143C51.5245 92.4068 49.3338 92.3237 47.1637 92.0663C46.5595 91.9946 45.9013 91.8806 45.5029 91.4193C45.2209 91.7309 44.7166 91.8109 44.3526 91.6016C44.4255 91.5049 44.4985 91.4082 44.5715 91.3115ZM46.6782 90.1897C46.504 90.2237 46.3127 90.2709 46.2126 90.418C46.0783 90.6153 46.1872 90.9031 46.3804 91.0428C46.5737 91.1824 46.8222 91.2128 47.059 91.2388C48.8102 91.4314 50.5614 91.6239 52.3126 91.8164C50.6438 91.9502 48.9569 91.8541 47.314 91.5315C46.805 91.4316 46.2748 91.2969 45.8967 90.9407C45.7597 91.0702 45.8089 91.315 45.9477 91.4425C46.0866 91.5701 46.2818 91.6108 46.467 91.6446C49.3161 92.1647 52.2449 92.2434 55.1177 91.8771C55.5482 91.8222 56.015 91.7379 56.3025 91.4118C56.5899 91.0857 56.5222 90.4446 56.0992 90.3472C53.0156 89.6372 49.7836 89.5832 46.6782 90.1897Z" fill="#0A0A28"/>
<path d="M34.7413 65.8155C34.6446 65.9242 34.7122 66.096 34.7621 66.2347C34.8682 66.5292 34.8695 66.8517 34.8694 67.1663C34.8694 67.9747 34.8693 68.7831 34.8692 69.5915C34.8692 69.7396 34.8274 69.9365 34.6854 69.9424C34.6804 68.9653 34.6754 67.9882 34.6704 67.0111C34.6685 66.6378 34.659 66.2384 34.453 65.933C34.3262 65.745 34.6143 65.4988 34.8169 65.5895C35.0195 65.6801 35.1022 65.9304 35.1447 66.1559C35.2359 66.6392 35.2457 67.1347 35.2553 67.6272C35.2672 68.242 35.2791 68.8569 35.2911 69.4717C35.2959 69.7205 35.2477 70.043 35.0135 70.0915C35.1238 69.2837 35.1197 68.4642 35.1154 67.6483C35.112 67.0131 35.0953 66.3326 34.7413 65.8155Z" fill="#0A0A28"/>
<path d="M34.1685 85.2445C34.318 85.4863 34.4674 85.7282 34.6169 85.97C34.6085 85.4995 34.8146 85.0292 35.1681 84.7123C34.9974 85.094 34.9466 85.5268 35.0244 85.9368C35.251 85.5564 35.4053 85.1345 35.4771 84.6992C35.5071 85.0186 35.5371 85.3379 35.5671 85.6572C36.3164 85.2977 37.1732 85.2413 38.0053 85.191C38.799 85.1431 39.5927 85.0951 40.3865 85.0472C42.8414 84.8989 45.3062 84.7506 47.7579 84.9439C48.5002 85.0025 49.2717 85.1033 49.8899 85.512C50.3294 85.8024 50.6827 86.3106 50.5752 86.8207C50.4243 87.5365 49.541 87.7979 48.8079 87.9147C46.6285 88.2619 44.4364 88.5317 42.2373 88.7235C39.5738 88.9556 36.7808 89.0526 34.3444 87.9683C33.9721 87.8026 33.5854 87.583 33.4284 87.2118C33.2713 86.8406 33.4992 86.3065 33.9077 86.3075C33.8327 86.0406 33.6344 85.8099 33.3795 85.6927C33.6838 85.5204 34.1337 85.741 34.1772 86.0839C34.1743 85.8041 34.1714 85.5243 34.1685 85.2445ZM35.4109 87.6626C36.6924 87.8442 37.9739 88.0258 39.2554 88.2074C37.6299 88.3186 35.9844 88.1389 34.4232 87.6796C35.2852 88.1232 36.2314 88.4077 37.1981 88.5139C37.9236 88.5937 38.6564 88.5738 39.3858 88.5438C42.798 88.4035 46.2009 88.0438 49.5656 87.4677C50.2097 87.3574 50.3406 86.3998 49.9077 85.9176C49.4748 85.4354 48.765 85.3233 48.1139 85.2641C45.0051 84.9815 41.8745 85.2215 38.7621 85.4617C37.5223 85.5573 36.2679 85.6558 35.0886 86.0441C34.69 86.1753 34.2379 86.4264 34.2302 86.84C34.2206 87.3613 34.8865 87.5883 35.4109 87.6626ZM33.8604 86.5772C33.6098 86.6694 33.5958 87.042 33.7636 87.247C33.8788 87.3877 34.0541 87.4791 34.237 87.494C33.9883 87.3013 33.8866 86.9446 33.9971 86.6527C33.979 86.5992 33.9163 86.5646 33.8604 86.5772H33.8604Z" fill="#0A0A28"/>
<path d="M42.6568 59.14C42.7138 59.1165 42.7711 59.1937 42.7692 59.2662C42.7673 59.3386 42.7278 59.4006 42.6902 59.4572C42.5736 59.632 42.4337 59.8218 42.2476 59.8314C42.2469 59.5294 42.4194 59.238 42.6568 59.14Z" fill="#0A0A28"/>
<path d="M51.7426 63.9285C48.2973 65.9307 44.8432 67.9375 41.1967 69.5432C40.6086 69.8022 39.9443 70.0538 39.3409 69.8327C38.9171 69.6775 38.6072 69.3152 38.333 68.9564C37.3802 67.7096 36.6117 66.322 36.06 64.8525C35.9215 64.4835 35.7949 64.0981 35.8157 63.7044C35.8365 63.3108 36.0352 62.9037 36.3934 62.74C37.3298 62.3121 38.2662 61.8843 39.2027 61.4564C39.3539 61.3873 39.5111 61.3136 39.6137 61.1826C39.7344 61.0284 39.7588 60.8221 39.7788 60.6272C39.9287 59.1644 40.0786 57.7015 40.2286 56.2386C40.2655 55.8782 40.3219 55.4797 40.6001 55.2481C40.8784 55.0165 41.4327 55.1612 41.4108 55.5228C41.3965 55.7591 41.6324 55.9242 41.839 56.0392C42.9403 56.6521 44.0415 57.2649 45.1428 57.8778C45.3493 57.9927 45.6 58.1095 45.8104 58.0019C46.7452 57.5237 47.6986 57.0821 48.6677 56.6783C48.9949 56.542 49.3591 56.4084 49.6948 56.522C49.9654 56.6136 50.1591 56.8481 50.3323 57.0755C51.3317 58.3874 52.1564 59.8325 52.7778 61.3606C52.9445 61.7707 53.099 62.2173 52.997 62.6481C52.855 63.2472 52.2745 63.6194 51.7426 63.9285ZM36.2233 64.0974C36.5672 65.3129 37.1785 66.4519 38.0013 67.4097C38.4276 67.9059 38.9386 68.3702 39.5716 68.5336C40.3654 68.7386 41.1941 68.4374 41.9494 68.1184C44.2093 67.164 46.3782 66.009 48.5436 64.8556C49.8005 64.1862 51.0574 63.5167 52.3143 62.8472C52.4863 62.7556 52.6735 62.6465 52.7322 62.4605C52.7797 62.31 52.7297 62.1479 52.6777 61.9989C52.099 60.339 51.2432 58.7762 50.1566 57.3951C49.9605 57.1459 49.7341 56.888 49.4251 56.8184C49.1053 56.7464 48.7814 56.8941 48.487 57.0383C44.5365 58.9728 40.6161 60.969 36.7278 63.026C36.5106 63.1409 36.2761 63.2752 36.1908 63.5059C36.1212 63.6943 36.1687 63.904 36.2233 64.0974ZM52.289 63.1781C51.5814 63.5586 50.8738 63.9391 50.1662 64.3196C47.4456 65.7825 44.7205 67.2476 41.8805 68.4619C40.9141 68.8751 39.7247 69.2371 38.8797 68.6116C38.4379 68.2845 38.1851 67.7383 37.716 67.4518C38.2224 68.4436 38.956 69.5801 40.0683 69.5582C40.465 69.5504 40.84 69.3861 41.2015 69.2221C45.0381 67.4821 48.7472 65.4602 52.289 63.1781ZM41.4068 56.264C41.282 56.2879 41.2169 56.4211 41.136 56.5192C41.0551 56.6174 40.8797 56.6779 40.8161 56.5678C40.8413 56.4559 40.8665 56.3441 40.8917 56.2322C40.851 56.1641 40.7415 56.1725 40.6854 56.2286C40.6293 56.2847 40.6125 56.368 40.5986 56.4461C40.3455 57.8648 40.1654 59.2964 40.059 60.7335C40.0515 60.8345 40.0564 60.9587 40.1458 61.0061C40.4377 60.8754 40.4063 60.4607 40.3713 60.1424C40.29 59.4028 40.468 58.6241 40.9239 58.0365C41.3798 57.4489 42.1244 57.0767 42.8651 57.1363C42.9481 57.0675 42.8516 56.9393 42.7606 56.8816C42.3964 56.6507 42.0095 56.4556 41.6074 56.3001C41.5432 56.2753 41.4745 56.251 41.4068 56.264ZM41.4209 59.3309C41.3775 59.5982 41.3462 59.952 41.0819 60.0095C41.0304 60.1929 41.3492 60.2763 41.476 60.1342C41.6028 59.9921 41.5906 59.7793 41.6071 59.5895C41.6524 59.0711 41.9873 58.5876 42.4563 58.3634C42.9254 58.1393 43.5114 58.1826 43.9424 58.4734C44.169 58.6263 44.4714 58.8441 44.6724 58.6587C44.7945 58.546 44.7746 58.3354 44.6704 58.206C44.5661 58.0766 44.4028 58.0116 44.2438 57.9641C43.6766 57.7947 43.0488 57.7847 42.5046 58.0176C41.9603 58.2504 41.5158 58.746 41.4209 59.3309ZM43.9278 57.5101C43.1706 57.2044 42.2617 57.3097 41.5942 57.7803C40.9266 58.2509 40.5214 59.0722 40.5536 59.8891C40.5611 60.0777 40.5901 60.2647 40.6192 60.4512C40.6346 60.5503 40.6777 60.6751 40.7779 60.676C40.9104 60.6773 40.9214 60.4824 40.8958 60.3522C40.7571 59.6466 40.9723 58.8804 41.4578 58.3504C41.9433 57.8205 42.6873 57.5399 43.4013 57.6175C43.5889 57.6379 43.8188 57.6644 43.9278 57.5101ZM41.8706 60.0082C42.4896 60.0025 42.9047 59.4042 43.319 58.9437C43.3524 58.9066 43.389 58.8684 43.4373 58.856C43.5047 58.8385 43.5818 58.885 43.598 58.9528C43.5278 59.0331 43.4576 59.1134 43.3874 59.1937C43.6391 59.2458 43.9175 59.1006 44.0191 58.8642C43.6392 58.4754 42.9969 58.3758 42.5173 58.6311C42.0377 58.8865 41.7611 59.4755 41.8706 60.0082ZM40.7803 55.837C40.9644 55.88 41.1717 55.773 41.2435 55.598C41.0527 55.419 40.6897 55.4999 40.5927 55.743C40.6522 55.7803 40.7116 55.8177 40.7711 55.855L40.7803 55.837ZM44.9437 58.2148C44.8865 58.3542 45.1289 58.4792 45.2183 58.3579C45.3077 58.2366 45.148 58.0417 45.0068 58.094C44.9584 58.1119 44.9196 58.1487 44.8824 58.1845L44.9437 58.2148Z" fill="#0A0A28"/>
<path d="M61.9552 67.299C61.1951 66.7949 60.9494 65.8062 60.8111 64.9048C60.4406 62.4889 60.4088 60.0212 60.717 57.5965C60.7628 57.2356 60.8246 56.8559 61.0555 56.5748C61.4795 56.0588 62.2597 56.0859 62.9269 56.1172C64.6892 56.1997 66.4649 55.9912 68.1601 55.5027C68.4431 55.4212 68.7468 55.6152 68.8892 55.8729C69.0316 56.1306 69.0512 56.4359 69.0676 56.7299C69.1567 58.3237 69.2457 59.9174 69.3348 61.5112C69.4107 62.8683 69.462 64.3258 68.7358 65.4749C67.7943 66.9646 65.8632 67.4512 64.1084 67.6174C63.3713 67.6873 62.5722 67.7082 61.9552 67.299ZM62.1686 56.3844C61.9727 56.3981 61.771 56.423 61.6011 56.5214C61.285 56.7045 61.1565 57.0896 61.0711 57.4447C60.7573 58.7498 60.6837 60.1122 60.8549 61.4434C62.1942 61.5077 63.5393 61.4534 64.8691 61.2816C64.9432 61.272 65.021 61.2606 65.0804 61.2153C65.1888 61.1327 65.1952 60.9747 65.1909 60.8385C65.1582 59.8002 65.0747 58.7636 64.9407 57.7335C64.899 57.4135 64.8423 57.072 64.6202 56.8379C64.4216 56.6284 64.1266 56.5444 63.8433 56.4887C63.2929 56.3803 62.7281 56.3451 62.1686 56.3844ZM63.6418 66.7792C64.021 66.7521 64.4672 66.6826 64.6375 66.3428C64.6974 66.2231 64.7117 66.0865 64.725 65.9533C64.8226 64.977 64.9202 64.0007 65.0178 63.0245C65.0334 62.8687 65.0457 62.6989 64.9595 62.5682C64.7947 62.3182 64.4182 62.3822 64.1304 62.4653C63.1109 62.7598 62.0535 62.9231 60.9926 62.95C60.7101 63.665 61.1144 64.4475 61.2164 65.2094C61.2494 65.456 61.2512 65.7108 61.3399 65.9432C61.4964 66.3535 61.9051 66.6254 62.3309 66.7332C62.7567 66.841 63.2037 66.8105 63.6418 66.7792ZM67.126 65.5194C66.5879 66.1466 65.6337 66.4003 65.3024 67.1573C67.4114 66.9968 69.1984 64.9685 69.0914 62.8567C68.9861 60.7793 68.8808 58.702 68.7756 56.6246C68.7674 56.4627 68.7573 56.2943 68.678 56.1529C68.5031 55.8415 68.0693 55.7889 67.7213 55.8694C67.3733 55.9499 67.0435 56.125 66.6863 56.1338C67.7136 56.7351 67.8301 58.1472 67.827 59.3373C67.8256 59.8773 67.8241 60.4173 67.8227 60.9573C68.0853 60.7025 68.592 60.8957 68.6822 61.2502C68.7723 61.6048 68.5052 61.9843 68.1572 62.0974C67.6291 62.2691 67.6306 62.999 67.6572 63.5536C67.6907 64.2483 67.5789 64.9915 67.126 65.5194ZM66.159 56.2736C65.9791 56.2509 65.7971 56.2774 65.6178 56.3038C65.4302 56.3315 65.2426 56.3592 65.055 56.3869C65.6486 56.9301 65.9556 57.7255 66.0871 58.5192C66.2186 59.313 66.1939 60.123 66.2328 60.9267C66.2361 60.9967 66.2456 61.0771 66.3038 61.1162C66.3492 61.1468 66.4089 61.141 66.4632 61.134C66.7075 61.1026 66.9519 61.0712 67.1962 61.0398C67.256 61.0321 67.3198 61.0228 67.365 60.9829C67.4217 60.933 67.4332 60.8506 67.4411 60.7756C67.5554 59.6944 67.6666 58.578 67.3469 57.5388C67.1668 56.9537 66.7664 56.3503 66.159 56.2736ZM64.6565 67.1416C64.9932 66.9987 65.3184 66.7787 65.4757 66.4485C65.5889 66.211 65.6045 65.9405 65.6183 65.6778C65.6977 64.163 65.7771 62.6483 65.8565 61.1335C65.9396 59.5494 65.9666 57.7914 64.9295 56.5908C65.7515 59.4347 65.4302 62.4673 65.1021 65.4093C65.0236 66.1136 64.7863 66.9922 64.0845 67.0918C63.3981 67.0696 62.7116 67.0473 62.0252 67.0251C62.8261 67.4521 63.8209 67.4961 64.6565 67.1416ZM67.4074 63.3136C67.4179 63.0218 67.4284 62.7301 67.439 62.4383C66.9785 62.415 66.5142 62.47 66.0719 62.6002C65.9686 63.6935 65.918 64.7918 65.9201 65.8899C65.9201 65.9125 65.9204 65.9359 65.9301 65.9562C65.9676 66.0351 66.0866 65.9978 66.1595 65.9497C66.406 65.7872 66.6557 65.6218 66.8493 65.3989C67.3309 64.8442 67.3809 64.0476 67.4074 63.3136ZM61.0672 62.7549C62.1378 62.5589 63.2085 62.3629 64.2791 62.1669C64.5387 62.1194 64.8387 62.082 65.0379 62.2552C65.0934 62.1125 65.1498 61.9611 65.1251 61.81C65.1004 61.6589 64.9612 61.5151 64.8108 61.5439C63.709 61.7546 62.5771 61.8075 61.4604 61.7003C61.2073 61.676 60.9477 61.8384 60.8589 62.0766C60.77 62.3149 60.8599 62.6075 61.0672 62.7549ZM67.8888 61.1581C67.3943 61.2652 66.8997 61.3724 66.4052 61.4795C66.3314 61.4955 66.2525 61.5144 66.2021 61.5706C66.1392 61.6408 66.1406 61.7456 66.1454 61.8397C66.1538 62.0001 66.1621 62.1605 66.1704 62.3209C66.6853 62.2073 67.2002 62.0937 67.715 61.98C67.9238 61.934 68.1459 61.8805 68.2917 61.7242C68.4374 61.5679 68.4513 61.2728 68.2649 61.1682C68.153 61.1054 68.0143 61.1309 67.8888 61.1581Z" fill="#0A0A28"/>
<path d="M54.333 2.85599L54.4989 2.95488C56.8914 4.39584 58.7462 6.15366 61.8596 9.61723C68.448 16.9467 74.7474 24.552 80.7384 32.4081L81.2108 33.0288L81.3479 33.2098C83.5777 36.1606 84.5587 38.057 84.6138 40.3326C84.6545 42.0154 83.9468 43.6678 82.6944 44.9714L82.6268 45.0409L82.6202 45.0468L82.5994 45.0697C82.3016 45.3895 81.9681 45.6737 81.6045 45.9159L81.5071 45.979L81.4767 46.0004C79.9438 47.0456 78.1387 47.4797 76.4554 47.1591L76.3654 47.1412L76.2923 47.1254L76.2829 47.1897C74.577 58.4385 71.0997 69.4166 66.0189 79.5966L65.8645 79.9048L65.7059 80.2188L65.6148 80.397C65.0938 81.4084 64.7418 81.9391 64.1984 82.4236C63.4848 83.0599 62.5803 83.4145 61.4641 83.5588C60.6737 83.6609 59.9301 83.66 58.6746 83.5881L58.4543 83.5751C53.4151 83.2694 48.3554 83.2713 43.3131 83.5803L42.8404 83.6102L42.4499 83.6359L42.3929 83.6421C41.63 83.7231 40.9381 83.7813 40.2761 83.8175L40.1112 83.8261L39.9266 83.8344L39.8929 83.8373C39.1075 83.9072 38.323 83.9846 37.5394 84.0694L36.2034 84.2205L35.0788 84.3494C34.7207 84.3894 34.4273 84.4206 34.1481 84.448C30.9525 84.5766 28.8528 84.5449 27.8489 84.3529L27.7123 84.3261L27.58 84.2987C24.1679 83.5763 21.338 81.3371 20.5968 78.4163C17.8037 67.4106 13.8962 56.688 8.95386 46.4654L8.88665 46.327L8.85395 46.3464C7.68184 47.0104 6.20908 46.8476 4.91194 46.0059L4.845 45.9618L4.77702 45.9154L4.76133 45.9087C4.35453 45.7283 3.99327 45.4044 3.73565 44.9972L3.69956 44.9385L3.68023 44.9053L3.66441 44.8862C3.24446 44.3708 2.93364 43.7925 2.75988 43.1904L2.73485 43.0999L2.7119 43.009C2.15558 40.6987 2.87117 38.3182 4.62291 35.298C7.81155 29.8006 11.7299 25.6716 16.4024 23.3582L16.5442 23.2886L16.7991 23.7428C12.6728 26.3913 9.09604 29.8924 6.35992 33.961C4.48385 36.7508 3.45242 39.3146 3.44919 41.7537L3.44975 41.8644L3.4512 41.9561L3.45589 41.9473C4.6327 39.6328 6.59924 37.7019 9.73871 35.4114L9.87397 35.313L9.99998 35.2219C13.4305 32.7478 17.1672 30.4143 21.4856 28.002L22.0649 27.6798C25.2577 25.9121 27.9738 24.5031 33.2693 21.8375L38.796 19.0553C40.3134 18.2868 41.4505 17.703 42.7246 17.039L43.0454 16.8706C45.6401 15.4987 47.6082 14.2075 49.163 12.7469C51.1652 10.8659 52.3066 8.82717 52.4757 6.54252C52.6123 4.69685 51.9286 2.94821 50.6222 2.13016C49.3524 1.33512 47.7213 1.39365 45.4501 2.06266C37.2618 4.47459 29.9284 9.69754 24.9721 16.6473C24.6671 17.0751 24.8749 17.4633 24.9721 17.6947C25.6085 19.2085 25.2193 20.9099 24.4673 22.3689L24.4256 22.4482L23.8357 23.5471L24.3119 20.9176C24.2694 16.6473 23.4694 14.2945 21.7002 10.7343L21.6259 10.5863L21.5823 10.5013L21.5534 10.5582C20.7307 12.1397 19.1503 13.3723 17.2222 14.0504L17.1222 14.085L17.0264 14.1169C15.4275 14.6419 14.0482 14.7962 11.2479 14.872L10.5854 14.8881L10.5062 14.7661C10.0257 14.0263 10.4943 13.1049 11.392 12.3776C13.2993 10.8324 15.5342 9.69407 17.9056 9.06002C19.1027 8.73995 19.9932 8.68129 20.8168 8.98582C21.0326 9.06563 21.2318 9.16446 21.416 9.28233L21.494 9.33401L21.5025 9.33996L21.5234 9.28639L21.5847 9.39908L21.615 9.42154C21.9876 9.70552 22.2931 10.0776 22.5472 10.5379L22.5942 10.6252L22.6332 10.7011C22.9196 11.2691 23.0954 11.8133 23.3612 12.8739L23.5416 13.6077L23.5932 13.8142C23.8226 14.7213 24.0182 15.3358 24.2694 15.8559L24.2976 15.9133L24.3119 15.9418L24.3769 15.8557C29.3403 9.32208 36.2441 4.28157 43.9792 1.54405L44.2139 1.4618L44.4563 1.37849C47.5103 0.339632 51.1259 0.963288 54.333 2.85599ZM41.143 47.2243C37.9305 47.3939 34.7813 48.8317 32.4855 51.1582C31.4455 52.2121 30.7761 53.2639 30.5294 54.3741L30.5078 54.4758C30.3636 55.1843 30.3737 55.834 30.4968 57.1112L33.1359 83.52C33.1565 83.7257 33.1812 83.8707 33.2186 83.9802L33.2281 84.0066L33.4112 83.9913L33.4364 83.9681C33.7499 83.6648 33.9587 83.2017 34.0221 82.6942L34.0312 82.6101L34.0331 82.5895C34.0759 82.0972 34.0262 81.6824 33.8528 80.8109L33.8037 80.5661L33.7302 80.1905C33.2035 77.448 32.9511 74.9302 32.6382 70.2198L32.5399 68.7313C32.1346 62.7098 31.8013 59.9107 30.9352 56.533C30.5443 55.0085 30.9976 53.2794 32.0588 51.9066C32.9579 50.7434 34.2347 49.831 35.8885 49.0616C37.895 48.1282 39.9835 47.6091 42.0261 47.575C43.6752 47.5475 45.3112 47.8066 47.5843 48.3708L47.8036 48.426C49.6744 48.9037 50.7804 49.3693 51.7196 50.2254C52.6636 51.0859 53.2733 52.2401 53.8363 53.9498C55.0829 57.7359 55.5611 61.9091 55.4916 66.9364L55.4814 67.5192C55.4478 69.1308 55.373 70.6353 55.2162 73.0688L54.9897 76.5126C54.8823 78.1933 54.8279 79.2276 54.7836 80.4454L54.7789 80.5928C54.7606 81.2582 54.7979 81.613 54.9529 81.9657C55.1058 82.3136 55.4044 82.5724 55.7109 82.64L55.7533 82.648L55.9394 70.0239C56.0079 64.8851 55.9621 62.4044 55.6667 59.4177L55.6571 59.3222C55.4977 57.7328 55.2881 56.423 54.9738 55.1976C54.8146 54.5766 54.624 53.9637 54.4031 53.3619C53.7784 51.6606 53.015 50.4105 51.9644 49.562C50.7817 48.6068 49.505 48.2053 46.8764 47.7648L46.6409 47.7258C43.9096 47.2788 42.669 47.1438 41.143 47.2243ZM34.4633 83.1569L34.4617 83.1635C34.3892 83.4376 34.2792 83.6958 34.1341 83.9253L34.6901 83.8674C34.8503 83.85 35.0226 83.8309 35.2135 83.8093L36.1461 83.702C36.0763 83.6931 36.0067 83.6837 35.9372 83.6738L35.7692 83.6492L35.552 83.6163L35.5471 83.3782L35.5235 83.3919C35.3149 83.5074 35.0843 83.5831 34.8472 83.6113L34.7877 83.6174L34.5525 83.6374L34.4633 83.1569ZM26.6593 83.3651L26.6424 83.3884C26.6157 83.423 26.5857 83.4543 26.5526 83.4823C26.9212 83.6038 27.3006 83.7063 27.6881 83.7883C27.8128 83.8148 27.9382 83.8394 28.0643 83.8624C27.6091 83.738 27.1624 83.5821 26.7289 83.3955L26.6593 83.3651ZM41.2362 35.5752C30.3791 36.172 19.2447 39.0402 7.98771 43.8948L7.59874 44.0633L7.99768 44.2509C8.90791 44.6787 9.42351 45.4103 10.102 46.8981L11.1725 49.2726C13.1499 53.6745 14.3048 56.3533 15.4879 59.341C17.1569 63.5559 18.4408 67.3839 19.3964 71.1266L19.9156 73.1998C19.9815 73.4596 20.0418 73.6937 20.1017 73.9215L20.181 74.2201C20.7344 76.2831 21.2597 77.7853 21.9459 79.1155C22.8243 80.8183 23.9198 82.0951 25.3351 82.9643C25.7272 83.2051 26.206 83.1908 26.2539 83.0016L26.257 82.9845L26.2973 82.6209L26.6279 82.7775C28.3548 83.5953 30.3283 83.8841 32.2177 83.6012L32.3209 83.5849L29.7267 57.7696L29.7021 57.5226C29.5363 55.8395 29.538 54.8835 29.8079 53.8637C30.1651 52.5137 31.0253 51.2756 32.2919 50.1162C34.4992 48.0958 37.359 46.8016 40.3337 46.4771C42.3261 46.2597 44.3396 46.4318 47.1345 46.9458L47.3783 46.9913C49.5415 47.4019 50.8742 47.8371 52.0858 48.6645C53.6353 49.7226 54.7029 51.3122 55.3954 53.3956C55.9456 55.0511 56.2397 56.9057 56.416 59.3237C56.9608 66.7952 56.9608 74.3063 56.4161 81.7778C56.3646 82.4842 57.295 82.9608 58.5388 83.0188L58.6012 83.0214L58.7764 83.0273L58.988 83.0333C61.145 83.0869 62.3786 82.8652 63.364 82.0468C63.9033 81.5989 64.2634 81.0668 64.8201 80.0062L64.8645 79.9213C69.8911 70.2753 73.3473 59.813 75.0566 49.071L75.1079 48.7454C75.2942 47.5497 75.4947 46.7093 75.8215 45.9602C76.2411 44.9986 76.8352 44.3256 77.6591 43.9857L77.7264 43.9589L77.8059 43.9282L77.7709 43.9013C77.0868 43.3803 76.2696 42.8928 75.202 42.3382L74.9648 42.216C65.0259 37.1333 53.3135 34.9113 41.2362 35.5752ZM41.7334 48.3981C39.9945 48.4669 38.2013 48.9397 36.381 49.7628C33.7586 50.9487 31.9905 52.6835 31.7268 54.7486C31.7098 54.8814 31.6989 55.0168 31.6939 55.1553L31.6911 55.2566C31.6793 55.8439 31.7548 56.3748 31.9628 57.3421L32.1239 58.074C32.6531 60.5052 32.938 62.8792 33.221 66.6032L33.4368 69.5354C33.8967 75.69 34.2671 79.1629 34.9533 82.9361L34.9751 83.0556L35.0107 83.0458C35.2195 82.9822 35.4133 82.8669 35.5669 82.7124L35.6044 82.673L36.0447 82.1902L36.0644 83.1646L36.1749 83.1797C37.2717 83.3241 38.4197 83.3671 39.6724 83.3226L39.8813 83.3146L40.269 83.2808C40.7971 83.2356 41.3255 83.1937 41.8537 83.1553L42.3937 83.1172L42.8215 83.0702C43.3812 83.0068 43.9167 82.9396 44.9397 82.8071L45.8288 82.6931C48.661 82.3358 50.1353 82.2143 51.8429 82.2499L52.0738 82.2556L52.7269 82.2778L52.9025 82.2814C53.3563 82.2874 53.6979 82.2637 54.0086 82.1937L54.0376 82.1868L54.0326 81.8177C54.0132 80.0238 54.0722 78.2107 54.2126 75.6922L54.3322 73.6676L54.4455 71.7825C54.5331 70.2824 54.5775 69.3595 54.6139 68.2734C54.8017 62.664 54.4022 58.3433 53.101 54.4036C52.5094 52.6122 51.8352 51.4038 50.8245 50.5885C49.9494 49.8825 48.9571 49.5195 47.1001 49.0922L46.8291 49.0304C44.6475 48.538 43.2179 48.3394 41.7334 48.3981ZM56.2734 82.7632L56.2708 82.9398L56.4889 82.9493C56.4101 82.8915 56.3381 82.8294 56.2734 82.7632ZM54.5624 82.3482L54.5669 82.5764L54.3792 82.6344C53.9443 82.7687 53.5064 82.8114 52.8929 82.803L52.6624 82.7979L52.1357 82.7794L52.0589 82.7771C51.1789 82.752 50.3768 82.7674 49.4342 82.8345C51.305 82.8121 53.1759 82.8317 55.0452 82.8933C54.8533 82.7522 54.6867 82.5651 54.5624 82.3482ZM78.197 44.245L77.9769 44.4108C77.3929 44.8503 76.9239 45.4421 76.6259 46.1097L76.6037 46.1606L76.6134 46.1628C77.3829 46.3242 77.8314 46.3345 78.2568 46.1591L78.2966 46.1421C78.8523 45.8971 79.1193 45.1354 78.7748 44.7842C78.6103 44.6166 78.4401 44.4561 78.2614 44.3004L78.197 44.245ZM7.89942 46.0473L7.63333 46.1392C7.52185 46.1767 7.42054 46.2082 7.32722 46.2333C7.75884 46.2239 8.17361 46.1206 8.54996 45.918C8.39927 45.9016 8.20598 45.944 7.89942 46.0473ZM52.4637 2.83258L52.4702 2.84736C53.5298 5.32705 53.4092 8.29358 52.1101 10.663C50.8579 12.9469 48.9324 14.4825 45.3484 16.4955L44.7198 16.8452C42.0505 18.322 39.6432 19.5721 35.308 21.7555L30.9082 23.9676C26.3639 26.2599 23.9196 27.5411 21.0457 29.1567C16.645 31.6304 12.9001 34.0357 9.51054 36.6288L9.26704 36.8161C7.18587 38.4259 5.85751 39.6936 4.82071 41.1965C4.1179 42.2153 3.78429 43.118 3.89722 43.9678C3.9222 44.1558 3.98077 44.3452 4.06789 44.5241L4.10189 44.5907L4.11116 44.6076L4.11785 44.6158C4.35696 44.8999 4.63021 45.1579 4.92523 45.3793L5.01437 45.4446L5.02935 45.455L5.05849 45.4665C5.21053 45.5225 5.3643 45.5489 5.5164 45.5446L5.52549 45.5439L5.52196 45.5048C5.44662 44.5291 6.33657 43.6868 7.67599 43.1009L7.74011 43.0732C19.7312 37.955 31.5377 35.0432 43 34.6738C55.7052 34.2643 67.9515 37.0769 78.0461 43.0115C78.3542 43.1926 78.617 43.362 78.8397 43.5304L78.9898 43.6488C79.4066 43.9928 79.6619 44.3432 79.8009 44.7918C79.9436 45.2523 79.8285 45.7734 79.559 46.1572L79.5423 46.1802C80.074 46.1031 80.6014 45.9121 81.0969 45.619L81.1749 45.5719L81.215 45.5468L81.2789 45.5027C81.5577 45.3059 81.8226 45.0893 82.0691 44.8569L82.1736 44.7563L82.2359 44.6941L82.2614 44.6666C82.6271 44.2638 82.9251 43.8077 83.1365 43.3246C83.887 41.6092 83.7771 39.4805 82.9431 37.4332L82.8826 37.2869C82.2413 35.7609 81.4044 34.5225 79.6187 32.2338C74.7393 25.9801 69.5847 19.7172 64.1281 13.3962L63.599 12.7843C61.3028 10.1322 59.8564 8.56448 58.2348 7.05497L58.1574 6.98312C56.2911 5.25382 54.4593 3.89556 52.5414 2.87376L52.4637 2.83258ZM7.29042 44.2054L7.24571 44.2278C6.89887 44.4022 6.70255 44.5534 6.55312 44.7669C6.33111 45.0841 6.36659 45.5452 6.61974 45.7017C6.80821 45.8183 7.01016 45.7996 7.49148 45.6364L7.61682 45.5929C7.88514 45.4986 8.09876 45.4343 8.28276 45.405L8.30009 45.4023L8.19741 45.269C8.07541 45.1129 7.94993 44.9595 7.82109 44.8091L7.69113 44.6595L7.29042 44.2054ZM18.2639 9.90205L18.2017 9.91505L18.2086 9.98423C18.2609 10.5157 17.9308 10.9572 17.3589 11.3535L17.3078 11.3884C16.4724 11.9496 15.5424 12.3693 14.5689 12.6244C13.7755 12.8324 13.1485 12.8414 12.6137 12.5514C12.5559 12.5201 12.4225 12.5691 12.2545 12.7087C11.8695 13.0283 11.5319 13.405 11.2556 13.8223L11.1987 13.9102L13.1779 13.8981C13.8436 13.8909 14.2157 13.8746 14.6402 13.8293L14.6876 13.8241C16.9999 13.5679 19.1972 12.3748 20.6711 10.5749L20.7331 10.4972C20.8673 10.3239 20.93 10.2033 20.9445 10.0811C20.9594 9.95607 20.8858 9.83313 20.816 9.82318C19.9693 9.70255 19.1024 9.73213 18.2639 9.90205ZM17.9043 10.0063C15.7687 10.19 13.7798 11.2696 12.9001 12.3681C12.9001 12.4469 12.97 12.4962 13.093 12.5187C13.3797 12.1668 13.7798 11.8175 14.2614 11.4996C14.4273 11.9916 15.4602 11.7837 16.1784 11.6002C17.1396 11.077 17.9043 10.4325 17.9043 10.0063ZM51.4105 2.07228L51.4297 2.08916C51.4843 2.13838 51.5376 2.18917 51.5895 2.24145L51.5178 2.10984L51.4297 2.07885L51.4105 2.07228Z" fill="#0A0A28"/>
<path d="M50.4978 45.0786C54.6643 47.2901 56.8579 51.0908 56.3773 51.3101C55.8968 51.5294 51.9888 44.671 42.325 45.4723C29.8612 45.904 28.3195 54.5205 27.8193 54.3507C27.3191 54.1809 29.2589 48.6911 33.887 45.7617C38.5152 42.8323 46.3314 42.8671 50.4978 45.0786Z" fill="#F6F7FA"/>
<path d="M47.9261 62.9798C47.8879 62.8483 47.8281 62.7241 47.7493 62.6121C47.6319 62.4644 47.5052 62.3244 47.3699 62.1929C47.1973 62.0136 46.523 61.4447 46.4885 61.295C46.4764 61.2699 46.4571 61.249 46.433 61.235C46.3969 61.2069 46.3573 61.1835 46.3203 61.1566C46.2303 61.0912 46.1428 61.022 46.0502 60.9606C46.0162 60.938 45.9607 60.9441 45.9318 60.9183C45.8151 60.8144 45.711 60.6958 45.5908 60.5965C45.446 60.4769 45.2854 60.3765 45.1392 60.2583C45.0047 60.1616 44.8515 60.0941 44.6893 60.0601C44.4845 59.9982 44.2661 59.9979 44.0612 60.0591C43.8733 60.1173 43.7584 60.2462 43.6399 60.3763C43.5273 60.4997 43.4753 60.6667 43.498 60.8322C43.4813 60.8305 43.4647 60.8279 43.4483 60.8244C43.1889 60.7497 42.967 60.8434 42.7653 60.991C42.6351 61.0847 42.5291 61.208 42.456 61.3508C42.3867 61.4745 42.3509 61.6141 42.3521 61.7559C42.3495 61.8091 42.3439 61.862 42.3354 61.9146C42.3229 62.0583 42.3112 62.2021 42.3001 62.3459C42.2942 62.4237 42.3121 62.5114 42.2819 62.5776C42.2165 62.71 42.1924 62.8591 42.213 63.0054C42.2246 63.0811 42.2319 63.1577 42.3091 63.1755C42.2913 63.2066 42.2774 63.2399 42.2678 63.2745C42.2579 63.3435 42.2568 63.4138 42.2521 63.4835C42.2377 63.7005 42.2201 63.9173 42.2104 64.1344C42.2054 64.2453 42.2197 64.3568 42.2168 64.4679C42.1987 64.7368 42.2485 65.006 42.3615 65.2507C42.434 65.4088 42.5401 65.5493 42.6725 65.6623C42.796 65.7611 42.9247 65.854 43.0868 65.8781C43.1785 65.8918 43.2714 65.8974 43.3638 65.9058C43.433 65.912 43.5736 65.9207 43.6255 65.927C43.6945 65.9083 43.7777 65.9144 43.8439 65.8992C43.8671 65.8938 43.8904 65.8885 43.9136 65.8831C44.0547 65.8301 44.2168 65.7549 44.3129 65.7103C44.5242 65.6103 44.7103 65.4639 44.8573 65.2822C44.9594 65.1707 45.029 65.0334 45.0587 64.8852C45.0889 64.6906 45.0693 64.4915 45.0017 64.3066C44.9196 64.0885 44.8266 63.8747 44.7412 63.6578C44.6536 63.4353 44.5651 63.2129 44.4862 62.9871C44.4499 62.9098 44.4374 62.8236 44.4501 62.7391C44.459 62.6434 44.4484 62.5469 44.4187 62.4555C44.3871 62.3132 44.3449 62.1734 44.3072 62.0325L44.3413 62.0191C44.3633 62.053 44.3838 62.0881 44.4077 62.1207C44.4642 62.2154 44.5316 62.3031 44.6086 62.382C44.6844 62.4508 44.7408 62.5384 44.7719 62.636C44.8231 62.7682 44.8562 62.9078 44.9123 63.0377C45.0236 63.2948 45.141 63.5492 45.2648 63.8009C45.3119 63.8996 45.3737 63.9906 45.4481 64.0707C45.6838 64.3202 45.9927 64.4886 46.3302 64.5515C46.5282 64.5856 46.7312 64.5776 46.9259 64.5281C47.181 64.4762 47.4142 64.3475 47.5941 64.1593C47.6538 64.0929 47.7062 64.0201 47.7502 63.9424C47.8266 63.8238 47.8928 63.699 47.9481 63.5693C48.0219 63.3743 47.9855 63.1714 47.9261 62.9798ZM45.4259 60.5456C45.5716 60.6779 45.7147 60.8131 45.8676 60.9554C45.8059 60.9747 45.7672 61.0019 45.7216 60.9364C45.6734 60.8844 45.6205 60.8369 45.5636 60.7945C45.5451 60.7674 45.5306 60.7377 45.5208 60.7064C45.4834 60.7043 45.4165 60.7088 45.4309 60.6257C45.3851 60.6126 45.3425 60.6004 45.2888 60.5849C45.3386 60.5156 45.3827 60.5064 45.4259 60.5456ZM45.3461 60.4888L45.205 60.5341L45.2367 60.4295L45.1425 60.4586C45.1049 60.4267 45.0737 60.3906 45.1089 60.3351C45.1824 60.3826 45.2558 60.4303 45.3461 60.4888ZM44.9404 60.243L45.1075 60.3344C45.0256 60.3675 44.9717 60.3311 44.9293 60.2665L44.9404 60.243ZM43.7421 61.1769L43.816 61.2773L43.7882 61.2999L43.7173 61.1949L43.7421 61.1769ZM42.465 62.4574C42.4876 62.1973 42.503 61.936 42.5392 61.6777C42.5512 61.558 42.5924 61.4429 42.659 61.3426C42.7766 61.1876 42.909 61.0394 43.1268 61.0033C43.2527 60.9713 43.3856 60.9803 43.5059 61.0293C43.5274 61.0372 43.5459 61.0515 43.5588 61.0704C43.6451 61.2433 43.759 61.4009 43.896 61.5371C44.0017 61.655 44.0751 61.7982 44.1091 61.9528C44.1361 62.0572 44.1496 62.1651 44.1681 62.2716C44.1709 62.2974 44.1723 62.3233 44.1724 62.3493C43.8813 62.2695 43.5943 62.2961 43.3133 62.3314C43.0328 62.3667 42.7578 62.4455 42.4729 62.5069C42.4677 62.4909 42.465 62.4742 42.465 62.4574ZM43.8308 61.3311L43.8585 61.3196L43.9303 61.3818C43.9017 61.39 43.8728 61.4052 43.8664 61.3986C43.8512 61.378 43.8391 61.3553 43.8308 61.3311ZM43.9475 61.4424C43.963 61.4432 43.9857 61.4377 43.9925 61.4458C44.0151 61.4724 44.0561 61.5012 43.9846 61.5525L43.9475 61.4424ZM42.3059 62.8384C42.3102 62.7523 42.3244 62.6822 42.4327 62.6529C42.5429 62.6231 42.6405 62.5489 42.7499 62.5141C42.8869 62.4705 43.0273 62.4386 43.1697 62.4189C43.3429 62.3926 43.5179 62.3798 43.6931 62.3806C43.8617 62.3881 44.0295 62.4082 44.1952 62.4406C44.2897 62.4702 44.3603 62.5494 44.3788 62.6467C44.2445 62.6872 43.941 62.6916 43.9211 62.6946C43.7427 62.7222 43.5636 62.745 43.3853 62.7732C43.3021 62.7864 43.2207 62.8104 43.1378 62.8253C43.1105 62.8302 42.8911 62.8784 42.8228 62.896C42.6562 62.9391 42.4873 62.9738 42.3063 63.0149C42.306 62.9587 42.3029 62.8984 42.3059 62.8384ZM42.665 65.5543L42.4629 65.2855L42.4764 65.2729C42.4931 65.2912 42.5099 65.3094 42.5263 65.3279C42.5692 65.3764 42.6139 65.4236 42.6539 65.4745C42.667 65.4968 42.6769 65.5209 42.6833 65.5459L42.665 65.5543ZM42.9135 65.71L42.8987 65.7225L42.793 65.6509L42.8921 65.6158L42.9135 65.71ZM43.07 65.7822C43.0169 65.7878 42.9783 65.7673 42.973 65.7146C42.9714 65.6996 43.0073 65.6782 43.0294 65.6657C43.0456 65.6754 43.0582 65.6899 43.0656 65.7072C43.0702 65.7319 43.0717 65.7571 43.07 65.7822ZM43.3592 65.8197L43.3384 65.8363C43.2994 65.8023 43.2604 65.7684 43.2185 65.732L43.1837 65.8196L43.1149 65.7203L43.1346 65.6885C43.2068 65.7007 43.2789 65.7129 43.359 65.7264L43.3592 65.8197ZM43.5249 65.8314C43.4397 65.8431 43.438 65.8415 43.4199 65.7291C43.4369 65.7267 43.4538 65.7241 43.4707 65.7222C43.4877 65.7204 43.5048 65.7194 43.523 65.7179L43.5249 65.8314ZM43.6865 65.8308C43.6023 65.8504 43.5871 65.8342 43.5849 65.7254C43.6114 65.7252 43.6378 65.725 43.6625 65.7248L43.6865 65.8308ZM43.9702 65.7579C43.9702 65.7684 43.9515 65.7886 43.946 65.7871C43.9313 65.782 43.9185 65.7724 43.9093 65.7598C43.8952 65.7369 43.8777 65.7163 43.8573 65.6988C43.8396 65.7536 43.8802 65.8322 43.7941 65.8317C43.7667 65.8315 43.7397 65.7654 43.7046 65.719L43.9623 65.6416C43.9655 65.6817 43.9705 65.7199 43.9702 65.7579L43.9702 65.7579ZM44.128 65.731L44.0459 65.7545L44.018 65.6315C44.0492 65.6159 44.0756 65.6028 44.106 65.5876L44.128 65.731ZM44.1894 65.6819L44.168 65.5622L44.2598 65.515C44.287 65.6533 44.2828 65.6629 44.1894 65.6819ZM44.4899 65.5183L44.4347 65.4252L44.4077 65.4308C44.4063 65.4562 44.4089 65.4817 44.4152 65.5064C44.4304 65.5419 44.4386 65.569 44.3918 65.5827C44.3493 65.5952 44.3306 65.5734 44.3229 65.5351C44.3184 65.5129 44.313 65.491 44.3083 65.4704C44.3744 65.4221 44.437 65.3763 44.5026 65.3283L44.5805 65.4587C44.5534 65.4765 44.5214 65.4976 44.4899 65.5183L44.4899 65.5183ZM44.8512 64.1592C44.8846 64.2361 44.9125 64.3153 44.9347 64.3962C44.9406 64.4173 44.9472 64.4384 44.9547 64.459C45.0058 64.5992 45.0134 64.7515 44.9763 64.896C44.9755 64.8998 44.9684 64.902 44.9642 64.9049C44.9642 64.9983 44.9228 65.0868 44.8512 65.1467L44.7464 65.0924L44.727 65.1128L44.8187 65.2065C44.7971 65.2308 44.7683 65.2632 44.7395 65.2957L44.6708 65.209C44.6187 65.2626 44.635 65.2941 44.7218 65.3232L44.6144 65.4207L44.5551 65.2842C44.6455 65.1463 44.7271 65.0027 44.7993 64.8544C44.8114 64.7845 44.8274 64.7154 44.847 64.6473C44.8517 64.6312 44.8766 64.6187 44.8948 64.6097C44.9124 64.6032 44.9307 64.5988 44.9493 64.5964L44.9513 64.5742L44.8687 64.549L44.8512 64.1592ZM44.7826 64.2708C44.817 64.4547 44.7991 64.6446 44.7307 64.8187C44.6582 65.0671 44.4912 65.2772 44.2655 65.4038C44.1397 65.4782 44.0082 65.5427 43.8724 65.5967C43.7666 65.6341 43.6546 65.6504 43.5426 65.6447C43.3564 65.6404 43.1714 65.6138 42.9915 65.5655C42.8539 65.5229 42.5974 65.2739 42.5845 65.2547C42.5442 65.1943 42.5041 65.1333 42.47 65.0693C42.3876 64.9288 42.3331 64.7738 42.3093 64.6127C42.2939 64.4661 42.2885 64.3187 42.293 64.1714C42.2974 64.0121 42.3173 63.8532 42.331 63.6942C42.344 63.5442 42.3555 63.3939 42.3733 63.2444C42.3807 63.2157 42.4006 63.1918 42.4275 63.1793C42.5024 63.1492 42.5792 63.1239 42.6574 63.1038C42.7135 63.0891 42.7736 63.0898 42.8298 63.0753C43.0665 63.0141 43.2996 62.9348 43.5393 62.8911C43.7421 62.8542 43.9535 62.867 44.1586 62.8395C44.3119 62.819 44.3646 62.8893 44.3981 63.0201C44.4351 63.1645 44.4891 63.3045 44.5344 63.4468C44.5399 63.464 44.6032 63.619 44.6221 63.6983C44.668 63.891 44.7368 64.0781 44.7826 64.2708L44.7826 64.2708ZM44.2252 61.7403C44.2061 61.7415 44.1719 61.7474 44.1706 61.7431C44.1639 61.7155 44.1597 61.6873 44.158 61.6589L44.2052 61.6524L44.2252 61.7403ZM44.0801 61.6578L44.0546 61.5454L44.0806 61.5362L44.1616 61.6217L44.0801 61.6578ZM44.0846 61.4513C43.9534 61.314 43.8136 61.1845 43.733 61.0053C43.6107 60.7734 43.6912 60.4864 43.9164 60.352C44.0646 60.2516 44.2409 60.2007 44.4198 60.2066C44.6243 60.2078 44.8216 60.282 44.9761 60.4159C45.1448 60.5582 45.3143 60.6995 45.4806 60.8445C45.5412 60.8973 45.5937 60.9592 45.6574 61.0245C45.5672 61.0673 45.4808 61.1059 45.3963 61.1486C45.1516 61.2705 44.9224 61.4214 44.7138 61.598C44.6501 61.6564 44.5928 61.7213 44.5427 61.7916C44.5054 61.8408 44.4794 61.855 44.431 61.804C44.3177 61.6843 44.1985 61.5704 44.0846 61.4513ZM44.2771 61.8479C44.2656 61.824 44.2587 61.7981 44.2567 61.7717L44.2773 61.7632L44.3412 61.8167L44.3409 61.843C44.3187 61.8453 44.2837 61.8569 44.2771 61.8479L44.2771 61.8479ZM44.3957 62.008L44.3536 61.8977C44.3719 61.8967 44.3936 61.8888 44.408 61.8958C44.458 61.92 44.4435 61.9523 44.3957 62.008ZM44.6452 62.2706C44.5874 62.2275 44.5368 62.1754 44.4955 62.1163C44.4787 62.0908 44.49 62.0366 44.5044 62.0022C44.5859 61.823 44.7154 61.6699 44.8785 61.5597C45.115 61.3801 45.375 61.2336 45.6511 61.1245C45.6957 61.1075 45.7403 61.0901 45.7835 61.0699C45.9719 60.9821 46.1695 61.0839 46.276 61.2669C46.2136 61.2811 46.1543 61.2926 46.096 61.3081C45.5498 61.4285 45.0667 61.7451 44.7383 62.198C44.7158 62.2304 44.6532 62.2768 44.6452 62.2706ZM44.9592 62.868C44.9101 62.7347 44.8535 62.6044 44.7897 62.4775C44.7634 62.4422 44.7687 62.3927 44.8017 62.3636C44.8407 62.3234 44.877 62.2804 44.9176 62.2419C45.1743 61.9985 45.4403 61.7669 45.7572 61.603C45.8535 61.552 45.9527 61.5068 46.0544 61.4675C46.1501 61.429 46.25 61.4017 46.352 61.3861C46.3929 61.3809 46.4465 61.4266 46.4847 61.46C46.576 61.54 46.6629 61.6252 46.7492 61.7107C46.9114 61.8713 47.0752 62.0304 47.2321 62.1961C47.4083 62.3821 47.5208 62.6057 47.6101 62.903C47.6235 63.0534 47.6273 63.2045 47.6215 63.3553C47.6003 63.5291 47.5088 63.6866 47.3682 63.7909C47.2308 63.9073 47.0836 64.0115 46.9283 64.1026C46.6568 64.2572 46.3299 64.2811 46.0388 64.1676C45.8676 64.1004 45.7096 64.0035 45.5721 63.8813C45.4621 63.7756 45.3645 63.6577 45.2814 63.5298C45.1412 63.3267 45.0326 63.1035 44.9592 62.868L44.9592 62.868ZM45.6394 64.1671C45.6095 64.1072 45.5876 64.0636 45.5634 64.0151C45.5174 64.0441 45.4871 64.0075 45.4582 63.9632C45.4062 63.8833 45.3525 63.8044 45.2996 63.725L45.3169 63.7116C45.4379 63.8355 45.5259 63.9958 45.7068 64.0513C45.683 64.0922 45.668 64.1179 45.6395 64.1671L45.6394 64.1671ZM45.86 64.263C45.7656 64.2611 45.7266 64.2107 45.7431 64.1041C45.8652 64.1662 45.8652 64.1662 45.86 64.263L45.86 64.263ZM47.8957 63.201C47.8833 63.2412 47.9439 63.3201 47.8304 63.3082C47.8171 63.3117 47.8066 63.322 47.8029 63.3352C47.8062 63.3489 47.8161 63.36 47.8294 63.3647C47.8578 63.3683 47.8864 63.3694 47.915 63.3679C47.9061 63.4228 47.8938 63.4771 47.8782 63.5304C47.8755 63.5382 47.8273 63.5348 47.8018 63.5292C47.7698 63.5203 47.7383 63.5093 47.7077 63.4963L47.692 63.5316C47.7423 63.5579 47.7925 63.5841 47.8509 63.6146C47.8316 63.6631 47.8084 63.7101 47.7815 63.7549C47.7319 63.825 47.6986 63.7139 47.6339 63.7462L47.7215 63.8535L47.6423 63.9491C47.5597 64.1167 47.4202 64.2494 47.2486 64.3235C47.2051 64.3438 47.1866 64.3407 47.1648 64.3002C47.1462 64.2711 47.1254 64.2435 47.1023 64.2177L47.0735 64.2361L47.1414 64.3786C47.0951 64.411 47.0502 64.4538 46.9994 64.4002C46.9689 64.3617 46.9422 64.3204 46.9196 64.2768L46.8956 64.2853L46.9481 64.4579C46.9057 64.4565 46.8488 64.4704 46.8138 64.4488C46.7791 64.4274 46.7663 64.3703 46.7388 64.3194C46.6878 64.3784 46.7355 64.4218 46.7478 64.4698C46.6496 64.5552 46.641 64.4358 46.5909 64.3863C46.5833 64.4212 46.5853 64.4485 46.5727 64.4617C46.5535 64.4814 46.5285 64.4944 46.5014 64.4989C46.4906 64.5003 46.4704 64.4698 46.4633 64.4506C46.4532 64.4175 46.4451 64.3838 46.4392 64.3497L46.4108 64.3529L46.3965 64.4954C46.3548 64.4783 46.3049 64.4732 46.2865 64.4464C46.266 64.4164 46.2741 64.3668 46.2697 64.3257L46.2371 64.3228L46.2133 64.439C46.0949 64.4493 46.1319 64.3342 46.0811 64.2653C46.0668 64.3116 46.0561 64.3461 46.0454 64.3807C45.9343 64.3423 45.907 64.2994 45.9414 64.2119C46.1176 64.2848 46.3077 64.3181 46.4981 64.3094C46.6741 64.3012 46.8448 64.2469 46.9931 64.1518C47.1308 64.0659 47.264 63.9732 47.3923 63.8738C47.509 63.7795 47.6003 63.6575 47.658 63.519C47.7232 63.3515 47.733 63.1674 47.6859 62.9939C47.6545 62.8634 47.6262 62.7322 47.5946 62.5929C47.6737 62.6437 47.7349 62.7179 47.7698 62.8052C47.803 62.8785 47.8321 62.9536 47.8568 63.0302C47.8773 63.0679 47.8711 63.1146 47.8413 63.1455C47.79 63.2047 47.8663 63.1849 47.8957 63.201Z" fill="#0A0A28"/>
<path d="M47.5026 63.8286C47.5229 63.9289 47.558 63.9564 47.6417 63.949C47.6448 63.942 47.6504 63.9315 47.6492 63.9306C47.6034 63.8977 47.5568 63.8659 47.5026 63.8286Z" fill="#0A0A28"/>
<path d="M47.6431 63.9486L47.6423 63.9486L47.6412 63.9509L47.6431 63.9486Z" fill="#0A0A28"/>
<path d="M47.1926 64.144C47.2273 64.1863 47.262 64.2285 47.2968 64.2708L47.3274 64.241L47.2206 64.1195L47.1926 64.144Z" fill="#0A0A28"/>
<path d="M47.3392 64.0224L47.4509 64.1233L47.4763 64.0929L47.3626 63.9946L47.3392 64.0224Z" fill="#0A0A28"/>
</svg>
