<svg width="12" height="12" viewBox="0 0 12 12" fill="none" xmlns="http://www.w3.org/2000/svg">
<path d="M0.807772 0.924815L0.863231 0.86201C1.10355 0.621688 1.48171 0.603201 1.74323 0.806551L1.80604 0.86201L6.0013 5.05675L10.1966 0.86201C10.4569 0.601661 10.879 0.601661 11.1394 0.86201C11.3997 1.12236 11.3997 1.54447 11.1394 1.80482L6.94463 6.00008L11.1394 10.1953C11.3797 10.4357 11.3982 10.8138 11.1948 11.0753L11.1394 11.1382C10.8991 11.3785 10.5209 11.397 10.2594 11.1936L10.1966 11.1382L6.0013 6.94341L1.80604 11.1382C1.54569 11.3985 1.12358 11.3985 0.863231 11.1382C0.602882 10.8778 0.602882 10.4557 0.863231 10.1953L5.05797 6.00008L0.863231 1.80482C0.622908 1.5645 0.604422 1.18634 0.807772 0.924815L0.863231 0.86201L0.807772 0.924815Z" fill="#3FA1D9"/>
</svg>
