<svg width="24" height="24" viewBox="0 0 24 24" fill="none" xmlns="http://www.w3.org/2000/svg">
<path d="M7.828 10.9997L13.192 5.63568L11.778 4.22168L4 11.9997L11.778 19.7777L13.192 18.3637L7.828 12.9997H20V10.9997H7.828Z" fill="#0A0A28"/>
</svg>
