<svg width="124" height="124" viewBox="0 0 124 124" fill="none" xmlns="http://www.w3.org/2000/svg">
<rect width="124" height="124" fill="white"/>
<g clip-path="url(#clip0)">
<path d="M39.3417 34.1462C42.1073 33.6751 43.0373 28.1378 40.9815 27.1405C41.9911 24.5951 40.8041 20.8506 39.5131 18.7825C38.5524 17.2407 37.2308 15.9741 35.7318 14.9646C36.4171 14.5975 36.772 13.2575 36.8943 12.6579C37.2064 11.1588 36.9494 9.58025 36.2274 8.23417C34.6305 5.24832 31.045 3.79211 27.7777 4.0185C24.7307 4.23265 21.4022 5.8663 19.8725 8.61964C18.6733 10.7795 19.2546 14.1324 21.6469 15.2154C19.4871 17.1734 17.9085 19.7309 17.1437 22.5332C16.6236 23.916 16.2687 25.464 16.5624 26.8101C13.2094 27.4464 14.2863 34.3298 17.6148 34.5623C17.162 35.0579 16.9112 35.7982 16.7827 36.4162C16.5685 37.4135 16.8133 38.4231 17.8473 38.784C18.092 38.8697 18.3184 38.6494 18.3307 38.4169C18.3551 37.799 18.2022 37.2544 18.3857 36.6364C18.4469 36.4223 18.5509 36.2265 18.655 36.0368C18.8752 36.6793 19.1138 37.3095 19.3831 37.9336C20.0071 39.3837 20.7353 40.9133 21.6653 42.2533C21.8855 44.5049 22.118 46.7382 22.118 49.002C22.1242 51.2536 21.8672 50.446 22.1425 52.667C22.167 52.8812 22.4729 52.9301 22.5158 52.716C22.8584 50.9967 22.9196 51.1925 22.8706 48.9959C22.8278 47.0318 22.6748 45.0556 22.3322 43.116C22.6014 43.4403 22.8829 43.7523 23.1827 44.0399C24.5043 45.2819 26.1502 45.8204 27.8878 46.0162C27.949 46.0712 29.3624 46.0712 29.4236 46.0162C31.1612 45.8204 32.8071 45.2881 34.1287 44.0399C34.5938 43.6055 35.0098 43.116 35.3953 42.5959C35.0832 44.5661 35.1934 46.677 35.3402 48.6227C35.5054 50.8009 35.1138 49.7852 36.1417 51.7431C36.209 51.8655 36.3926 51.8043 36.3926 51.6758C36.4171 49.3936 36.2825 50.6173 36.1173 48.3351C35.9582 46.1018 36.1723 43.8624 36.0438 41.6353C36.7903 40.4483 37.396 39.1573 37.9222 37.9213C38.1731 37.3401 38.3934 36.7527 38.6014 36.1592C39.3111 36.5018 39.7027 37.1198 40.2045 37.7745C40.4064 38.0376 40.8347 37.9703 40.853 37.597C40.8836 36.8995 40.8591 36.1653 40.5838 35.5167C40.3329 34.8865 39.8373 34.5684 39.3417 34.1462ZM40.6817 27.7523C41.728 28.4315 41.4893 30.0407 41.1406 31.1909C40.8285 32.2066 40.3391 32.9531 39.4702 33.3385C39.8802 31.6376 40.1371 29.906 40.235 28.1623C40.3329 28.1745 40.437 28.1378 40.4981 28.0521C40.5593 27.9542 40.6205 27.8502 40.6817 27.7523ZM40.2473 25.8923C40.2289 25.2498 40.2045 24.6013 40.1371 23.9649C40.2289 23.9221 40.3085 23.8426 40.3635 23.7508C40.4186 24.4911 40.3452 25.1948 40.2473 25.8923ZM40.2962 23.2185C40.2962 23.2185 40.2962 23.2124 40.2901 23.2124C40.1127 23.0227 39.923 22.8514 39.7456 22.6678C39.8924 22.0498 39.7394 21.3707 39.562 20.7405C39.9046 21.5359 40.1616 22.3619 40.2962 23.2185ZM38.3016 18.5806C38.583 19.1925 38.8217 19.8227 38.9746 20.4835C39.097 21.0158 39.1031 21.5848 39.1949 22.1233C39.0909 22.0254 38.993 21.9152 38.8828 21.8173C38.9196 21.7806 38.9502 21.7317 38.9379 21.6705C38.7238 20.3428 38.0446 18.9477 37.3226 17.8219C36.8882 17.1428 36.3314 16.6227 35.7746 16.0965C36.7352 16.8001 37.5796 17.6261 38.3016 18.5806ZM36.8393 18.1095C37.5062 19.1435 37.8611 20.3366 38.4423 21.4074C37.6041 20.6487 36.7352 19.9451 35.8236 19.3332C35.4198 17.3141 34.2511 15.5152 32.6236 14.2976C33.211 14.5424 33.78 14.8238 34.3307 15.142C34.3307 15.1787 34.3368 15.2093 34.3551 15.246C35.0159 16.329 36.1417 17.0265 36.8393 18.1095ZM26.8538 20.4713C26.8538 20.8812 26.9639 21.285 27.0312 21.6888C26.1991 20.6976 26.3827 18.6969 27.3616 17.8831C27.6064 17.8586 27.8511 17.8403 28.0959 17.828C27.6798 18.1034 27.3616 18.5256 27.1475 18.9906C26.9395 19.4556 26.8477 19.9634 26.8538 20.4713ZM27.0251 17.0816C26.144 17.1978 25.2813 17.4181 24.4431 17.7118C24.4676 16.9041 24.6756 16.1577 25.0121 15.4051C25.2569 14.8544 25.5505 14.4567 25.9177 14.0957C25.9299 14.108 25.936 14.1202 25.9605 14.1263C26.9823 14.4445 27.8939 14.9034 28.6771 15.6437C29.1177 16.0598 29.4419 16.5493 29.7785 17.0265C28.9035 16.9531 27.9857 16.9592 27.0251 17.0816ZM24.0943 17.8342C23.7762 17.9565 23.458 18.0911 23.146 18.238C23.0481 17.3997 23.6783 16.1026 24.0331 15.4296C24.2962 14.9279 24.6083 14.3955 25.0244 14.004C24.3024 15.038 24.0637 16.8185 24.0943 17.8342ZM26.1869 13.851C26.3154 13.7409 26.4439 13.6368 26.5907 13.5267C26.5968 13.5206 26.6029 13.5145 26.6091 13.5084C29.1788 14.4445 31.5222 15.6131 33.1253 17.877C32.2687 17.5282 31.3815 17.2713 30.4454 17.1244C29.9314 15.4173 27.8144 14.1508 26.1869 13.851ZM31.3693 15.191C30.0905 14.2732 28.6465 13.5451 27.1047 13.1841C28.2182 13.0678 29.3318 13.233 30.427 13.5267C31.3509 14.2365 32.4033 14.7627 33.2416 15.5948C34.2022 16.5493 34.5509 17.7118 35.0832 18.856C34.5938 18.5623 34.092 18.2931 33.5781 18.0605C33.4496 16.8124 32.3299 15.8885 31.3693 15.191ZM35.64 10.7367C35.5911 10.0636 35.5482 9.34163 35.4136 8.65023C35.6645 9.10912 35.8542 9.60472 35.9704 10.1187C36.0989 10.6816 36.1417 11.2812 36.0928 11.8502C36.0622 12.1867 35.744 14.2487 35.1628 14.1692C35.1383 14.163 35.1199 14.1692 35.0955 14.1692C35.6951 13.129 35.7196 11.9359 35.64 10.7367ZM33.9207 6.80855C34.1226 6.97987 34.3062 7.16343 34.4836 7.35922C35.0282 9.65979 35.5482 12.0032 34.5999 14.2793C34.0676 13.9917 33.523 13.7347 32.9662 13.5022C33.884 13.1045 34.5081 12.0583 34.6733 11.0365C34.9058 9.56801 34.4775 8.08121 33.8289 6.73513C33.8595 6.76572 33.8901 6.78408 33.9207 6.80855ZM32.905 6.08656C34.1287 8.41773 35.0894 12.1256 32.183 13.1902C32.1586 13.1841 32.1341 13.1718 32.1096 13.1596C34.092 10.8896 33.0396 7.82423 31.5345 5.43188C32.0117 5.60932 32.4706 5.82959 32.905 6.08656ZM30.9471 5.24832C32.2503 7.49995 33.9391 10.9263 31.5284 12.9699C31.5161 12.9638 31.5039 12.9577 31.4916 12.9577C30.8003 12.7435 30.1333 12.5967 29.4848 12.5172C30.2863 11.8196 30.8308 10.1615 30.9838 9.40281C31.2897 7.91601 31.045 6.43532 30.3903 5.09536C30.5861 5.13207 30.7635 5.19326 30.9471 5.24832ZM29.7723 4.96687C30.4515 6.17222 30.8064 7.44488 30.6412 8.83991C30.5677 9.47012 30.4087 10.0269 30.1517 10.6082C30.0354 10.8713 29.3502 12.1684 29.0075 12.4682C28.5303 12.4315 28.0591 12.4193 27.6003 12.4498C28.5976 11.5076 29.2706 10.2655 29.4848 8.88274C29.754 7.11448 29.0932 6.20282 28.2427 4.85674C28.7567 4.85674 29.2645 4.89345 29.7723 4.96687ZM26.9272 4.96075C27.227 4.91792 27.533 4.88733 27.8328 4.86897C27.8939 5.1749 27.9307 5.14431 28.1754 5.56649C28.72 6.50262 29.0932 7.24297 28.9953 8.36266C28.8484 10.0208 28.0347 11.373 26.9089 12.5416C26.707 12.5722 26.5112 12.6089 26.3092 12.6579C24.8959 12.0399 23.8618 11.2628 23.4335 9.65979C23.0481 8.2097 23.4458 6.94316 24.2595 5.7684C25.1222 5.37069 26.0278 5.09536 26.9272 4.96075ZM23.819 5.97643C22.7972 7.22461 22.4301 8.51562 23.0481 10.2716C23.4458 11.3975 24.3452 12.5233 25.5016 12.8781C25.3425 12.9332 25.1834 12.9822 25.0305 13.0433C24.1616 12.7558 23.3601 12.511 22.84 11.5933C22.5158 11.012 22.3444 10.2349 22.3322 9.58637C22.3016 8.19134 22.8829 7.09 23.6966 6.03762C23.7333 6.01314 23.7762 6.0009 23.819 5.97643ZM20.6374 8.76037C20.668 8.71142 20.6924 8.66247 20.7291 8.61352C21.2125 7.90377 21.8305 7.29192 22.528 6.77796C21.8121 7.79976 21.5062 9.11524 21.7203 10.3634C21.9773 11.8808 22.8523 13.1963 24.2412 13.4043C24.131 13.4594 24.0209 13.5267 23.9108 13.5879C22.8951 13.0923 21.7632 12.6824 21.084 11.7095C20.4783 10.8346 20.3804 9.75157 20.6374 8.76037ZM19.9643 10.6388C20.0439 11.1282 20.2213 11.6116 20.5089 12.0399C21.0351 12.8292 22.2098 13.7653 23.2867 13.955C22.8523 14.2426 22.4179 14.5607 21.9896 14.9217C20.6863 13.7225 19.8114 12.2296 19.9643 10.6388ZM22.4668 15.4846C22.479 15.4663 22.4729 15.4479 22.479 15.4296C22.9808 15.0013 23.5131 14.5975 24.0821 14.2548C23.9781 14.4078 23.8863 14.5607 23.8129 14.6831C23.2377 15.6743 22.6381 17.1734 22.9073 18.3542C22.271 18.6724 21.653 19.0334 21.0718 19.4495C21.4572 18.1034 21.6347 16.7084 22.4668 15.4846ZM21.4022 16.4453C21.2431 16.7818 21.1146 17.1366 20.9922 17.4793C20.7169 18.2563 20.3987 19.1374 20.3681 19.9818C19.4442 20.7099 18.0431 21.8663 17.523 23.1083C18.3062 20.6242 19.5605 18.3298 21.4022 16.4453ZM15.4978 31.3378C15.0817 29.7959 15.2592 27.7829 17.058 27.3668C17.1131 29.5328 17.4312 31.6927 17.9819 33.7913C16.7276 33.3997 15.8771 32.745 15.4978 31.3378ZM17.5964 37.7194C17.0641 36.9974 17.7249 35.5718 18.245 34.758C18.2878 34.911 18.3429 35.064 18.3919 35.2169C17.676 35.7737 17.6209 36.8016 17.5964 37.7194ZM38.6014 33.5833C38.3689 33.6322 38.3628 33.8709 38.479 34.0299C38.2771 34.7458 38.0568 35.4617 37.7938 36.1653C37.0351 38.215 36.05 40.2709 34.7712 42.0575C33.1437 44.3274 31.2224 44.9026 28.6649 45.2697C26.1073 44.9026 24.1861 44.3274 22.5586 42.0575C21.2798 40.2709 20.2947 38.2211 19.536 36.1653C18.1471 32.4146 17.6087 28.4743 17.7005 24.5034C17.7249 24.4728 17.7494 24.4361 17.7494 24.3871C17.7861 22.4108 20.876 20.3489 22.375 19.4923C23.666 18.7519 25.0672 18.2441 26.5234 17.9932C26.144 18.495 25.9605 19.2475 25.9177 19.7799C25.832 20.8567 26.1869 22.1844 27.2821 22.6005C27.4595 22.6678 27.6431 22.4965 27.6431 22.3252C27.637 21.542 27.3127 20.8261 27.4106 20.0368C27.5452 18.9539 28.1815 18.4154 29.0136 17.8342C33.4373 18.0055 36.6373 20.7833 39.6048 23.8365C39.7456 27.1282 39.4458 30.4078 38.6014 33.5833ZM38.8461 35.5106C38.9318 35.2475 39.0113 34.9783 39.0909 34.7091C39.3785 34.9906 39.6783 35.2536 39.8679 35.6085C40.027 35.9083 40.1127 36.2387 40.1555 36.5691C39.7823 36.098 39.3295 35.6146 38.8461 35.5106Z" fill="#0A0A28"/>
<path d="M29.7483 35.6878C29.3322 35.6817 28.9528 35.902 28.5184 35.8714C28.2431 35.853 27.9678 35.7857 27.7169 35.6633C27.5884 35.6021 27.0194 35.3085 27.0989 35.131C27.1662 34.9719 26.9276 34.8557 26.8236 34.9719C26.3586 35.4675 27.3987 36.0304 27.7658 36.1773C28.3716 36.4159 29.4546 36.5322 29.9012 35.9448C29.9808 35.8347 29.8645 35.6878 29.7483 35.6878Z" fill="#0A0A28"/>
<path d="M25.3246 27.5504C24.6271 26.5286 23.4156 26.1676 22.2408 26.0208C21.2007 25.8923 19.6282 25.7883 19.0714 26.8835C18.9491 27.1283 19.2183 27.4831 19.4814 27.2935C21.1762 26.0942 23.4523 26.755 25.037 27.8319C25.2083 27.9543 25.4408 27.7218 25.3246 27.5504Z" fill="#0A0A28"/>
<path d="M25.4895 30.2547C24.6574 28.5844 20.6008 28.6333 19.9583 30.475C19.9277 30.5545 20.4478 30.5178 20.3193 30.4995C20.5824 30.5362 21.2493 29.9855 21.5124 29.8998C21.6042 29.8692 21.7021 29.857 21.8 29.8325C21.7572 30.0344 21.7694 30.2547 21.8551 30.4505C22.0142 30.8176 22.3446 31.0562 22.6933 31.1113C22.7362 31.1358 23.091 31.1603 23.1767 31.0562C23.3419 30.9889 23.4887 30.8666 23.605 30.683C23.7457 30.4566 23.8008 30.1691 23.7396 29.906C24.2474 30.1018 24.6818 30.4077 25.2264 30.6035C25.4283 30.6708 25.569 30.4199 25.4895 30.2547Z" fill="#0A0A28"/>
<path d="M30.7452 27.5504C31.4427 26.5286 32.6542 26.1676 33.8289 26.0208C34.8691 25.8923 36.4415 25.7883 36.9983 26.8835C37.1207 27.1283 36.8515 27.4831 36.5884 27.2935C34.8935 26.0942 32.6175 26.755 31.0327 27.8319C30.8614 27.9543 30.6289 27.7218 30.7452 27.5504Z" fill="#0A0A28"/>
<path d="M30.5861 30.2547C31.4182 28.5844 35.4748 28.6333 36.1172 30.475C36.1417 30.5545 35.6277 30.5178 35.7562 30.4995C35.4931 30.5362 34.8262 29.9855 34.5631 29.8998C34.4713 29.8692 34.3734 29.857 34.2755 29.8325C34.3184 30.0344 34.3061 30.2547 34.2205 30.4505C34.0614 30.8176 33.731 31.0562 33.3822 31.1113C33.3394 31.1358 32.9845 31.1603 32.8989 31.0562C32.7337 30.9889 32.5868 30.8666 32.4706 30.683C32.3298 30.4566 32.2748 30.1691 32.336 29.906C31.8281 30.1018 31.3937 30.4077 30.8492 30.6035C30.6411 30.6708 30.5004 30.4199 30.5861 30.2547Z" fill="#0A0A28"/>
<path d="M31.394 39.3042C30.3906 39.188 29.3076 39.5918 28.2674 39.5796C27.417 39.5673 26.3585 39.3042 25.6059 39.7693C25.5447 39.806 25.5569 39.8794 25.6059 39.9161C26.4441 40.5157 28.0349 40.3199 29.0261 40.2893C29.8889 40.2649 30.9657 40.2526 31.498 39.4939C31.5653 39.4083 31.4797 39.3165 31.394 39.3042Z" fill="#0A0A28"/>
<path d="M38.7667 52.6855C39.091 52.8018 39.4214 52.8997 39.7579 52.9915C39.5499 52.8018 39.4826 52.4897 39.5744 52.2389C39.1155 52.196 38.6933 52.1716 38.3201 52.1777C38.3017 52.1593 38.2833 52.141 38.2711 52.1226C37.9346 51.7739 37.2983 50.9907 36.7476 50.9662C36.6742 50.8561 36.5396 50.7949 36.3988 50.8928C35.3648 51.6026 34.5143 52.5265 33.3885 53.1077C31.9751 53.8358 30.3904 53.9031 28.8302 53.8848C26.2788 53.8603 23.8742 53.328 21.7266 51.9819C21.6899 51.9024 21.6409 51.8412 21.5552 51.7739C21.439 51.6882 21.1514 51.5781 21.0841 51.4924C21.0352 51.4312 20.9495 51.4251 20.8822 51.4374L20.8577 51.4435C20.8027 51.4557 20.766 51.4863 20.7354 51.5291C20.3621 51.6821 20.0807 51.9635 19.8543 52.3001C17.9698 52.5142 16.1526 53.6094 14.6841 54.723C13.3013 55.7693 10.5358 59.0305 10.4317 59.1773C9.8566 60.0217 9.39159 60.915 9 61.8328C9.28757 62.0285 9.46501 62.3161 9.55679 62.671C9.91166 61.7532 10.3338 60.8599 10.86 60.0155C11.2027 59.4771 11.5759 58.9693 11.9797 58.4737C12.8608 57.5987 13.6684 56.6198 14.6168 55.8243C16.1342 54.5578 17.7067 53.8481 19.4505 53.1261C19.218 53.8358 19.1507 54.6373 19.169 55.2614C19.218 56.8951 19.7748 58.6817 21.0964 59.7219C22.522 60.8477 24.2413 60.6825 25.6608 59.6546C26.3583 59.1467 26.9457 58.492 27.3862 57.7456C27.7839 57.0786 27.943 56.1425 28.3591 55.445C28.6711 60.089 28.4998 64.684 28.3468 69.3402C28.2367 72.7666 28.0593 76.4989 28.6956 79.9865C28.7445 80.0415 28.7874 80.0905 28.8363 80.1455C28.9648 79.9314 29.2218 79.8029 29.5216 79.8702C29.3258 78.463 29.1545 77.0496 29.0933 75.6117C28.9893 73.2744 29.0443 70.931 29.1239 68.5876C29.2768 64.0477 29.6134 59.3792 28.8547 54.8699C28.873 54.8515 28.8914 54.8331 28.9097 54.8209C28.9464 54.7964 28.9587 54.7658 28.9709 54.7352C30.3598 57.5131 32.8807 60.5479 36.2887 58.902C37.5063 58.3146 38.7361 57.3662 39.2501 56.0691C39.6172 55.1574 39.6355 53.9276 39.0237 53.1383C38.9747 52.9853 38.8768 52.8324 38.7667 52.6855ZM27.27 56.7482C26.5602 58.2656 24.9082 60.0523 23.0788 59.8565C21.0229 59.6362 20.0256 57.4947 19.8604 55.6469C19.7931 54.931 19.8421 54.1846 20.0562 53.4993C20.2336 52.9303 20.5824 52.4897 20.87 52.0003C20.9495 52.0614 21.0352 52.1104 21.1086 52.1593C21.2065 52.2266 21.2983 52.2756 21.3962 52.3062C23.3419 53.8481 25.8505 54.3987 28.304 54.5027C28.304 54.5089 28.2979 54.5211 28.2979 54.5272C28.304 54.6312 28.3101 54.7291 28.3162 54.827C27.7594 55.3043 27.5942 56.0507 27.27 56.7482ZM38.3078 56.5035C37.647 57.4947 36.3254 58.3941 35.1751 58.6756C32.3422 59.3792 30.6535 56.5647 29.4237 54.515C32.2443 54.4599 34.7346 53.6094 36.6742 51.3945C36.8883 51.7004 37.3044 51.933 37.5491 52.1716C37.7877 52.398 38.0631 52.6488 38.3139 52.9303C38.8952 54.1723 39.1216 55.2798 38.3078 56.5035Z" fill="#0A0A28"/>
<path d="M16.3851 63.601C16.4096 63.3196 15.9751 63.2706 15.9017 63.5337C15.3694 65.4978 15.5897 67.7249 15.6019 69.744C15.6019 70.1723 15.6141 70.6067 15.6141 71.035C14.8799 70.1173 14.2497 69.3341 13.8948 68.1654C13.5889 67.1559 13.4971 66.1157 13.3503 65.0817C13.3197 64.8859 13.0076 64.9349 13.0138 65.1245C13.0688 67.1192 13.4053 70.5027 15.6203 71.3104C15.6386 73.0664 15.6631 74.8163 15.7304 76.5723C15.7549 77.1413 16.6298 77.1413 16.6176 76.5723C16.5136 72.2893 16.0486 67.8718 16.3851 63.601Z" fill="#0A0A28"/>
<path d="M48.0486 66.9475C47.8773 66.923 47.7121 66.8373 47.6142 66.6354L47.6081 66.6171C47.4734 66.8557 47.3327 67.0882 47.1736 67.3146C46.5985 68.1345 45.797 68.832 45.1668 69.6213C44.9037 67.2473 44.4754 64.8916 44.665 62.4932C44.6773 62.2974 44.3713 62.2607 44.3285 62.4503C43.7228 64.9222 44.1939 67.4553 44.4081 69.9517C44.5304 71.3589 44.6222 72.7662 44.6834 74.1735C44.7385 75.3911 44.5794 76.7004 44.9648 77.863C45.0444 78.0955 45.3748 78.1077 45.4482 77.863C45.8092 76.7066 45.5889 75.3727 45.5278 74.1735C45.4604 72.8763 45.3626 71.5792 45.2341 70.2821C46.1457 69.762 46.8677 68.7892 47.4673 67.9815C47.6937 67.6817 47.914 67.3635 48.122 67.0393C48.0975 67.0025 48.0731 66.9781 48.0486 66.9475Z" fill="#0A0A28"/>
</g>
<g clip-path="url(#clip1)">
<path d="M82.3511 98.2003C82.3083 96.5545 82.1248 94.9208 81.9045 93.2933C81.7576 92.2103 81.8372 90.1055 81.0295 89.2489C80.2708 88.4474 78.4842 88.2944 77.4747 88.0436C77.1381 87.9579 71.0441 87.3766 70.8299 87.3583C69.9427 87.2849 69.0555 87.1503 68.1745 87.0401C67.8747 86.8505 66.4307 85.8593 66.2165 85.9755C66.0575 83.9013 65.8005 81.8333 65.7148 79.7407C65.623 77.5319 65.7515 75.317 65.6598 73.1143C66.6448 72.2333 67.8624 69.8409 67.7523 69.7981C68.4131 67.8707 68.511 65.6925 68.6272 63.6795C70.5729 63.5143 71.7355 60.7426 71.6743 59.0662C71.6682 58.8948 71.6498 58.7113 71.6131 58.5338C71.7538 58.4849 71.8823 58.3809 71.9313 58.2279C72.0292 58.2646 72.1454 58.2646 72.2617 58.2034C73.1244 57.7751 73.8035 56.7472 73.2896 55.86C73.9443 55.3522 74.4949 54.722 74.8743 53.9388C75.272 53.1251 75.7003 51.6444 74.7641 51.0019C74.7274 50.9774 74.6846 50.953 74.6479 50.9346C74.5867 49.9128 74.3358 48.8849 73.9565 48.0589C73.5833 47.2451 72.9041 47.0371 72.2188 47.2818C72.6655 44.9568 71.142 41.8302 68.8659 41.4325C68.4926 41.3652 68.1316 41.3897 67.7951 41.4754C67.3791 40.6677 66.7366 39.8295 65.9045 39.5174C65.6842 38.6425 65.1947 37.7981 64.6257 37.3698C63.5366 36.556 62.1661 36.8681 61.5359 38.049C61.4747 38.1652 61.4318 38.2876 61.3768 38.41C61.3217 38.4222 61.2666 38.4467 61.2055 38.465C60.9668 38.1407 60.6364 37.8838 60.202 37.7492C59.9634 37.6757 59.737 37.6574 59.5229 37.6757C58.5317 36.0543 56.2433 35.1304 54.4322 36.4153C54.0651 36.2134 53.6429 36.1033 53.1779 36.1339C52.1928 36.2073 51.3057 36.9782 50.7795 37.9144C50.547 37.8287 50.3206 37.7675 50.1064 37.743C48.7848 37.5962 47.6774 38.4161 47.298 39.5541C46.986 39.5113 46.6862 39.5113 46.4292 39.548C44.1286 39.909 43.2475 42.3075 42.6234 44.2471C42.6173 44.2715 42.6173 44.296 42.6173 44.3205C42.4399 44.4857 42.293 44.6753 42.189 44.8834C40.5064 45.5319 40.0781 48.4933 41.0632 49.8578C41.1672 49.9985 41.2896 50.127 41.4303 50.2371C41.4303 50.7511 41.5343 51.2528 41.7301 51.6872C41.2774 51.9992 40.9531 52.501 40.7451 53.0761C39.1665 53.8776 38.2854 56.1231 39.6927 57.9159C40.2862 58.6685 41.2651 59.0356 42.1768 58.8887C42.1034 60.2899 43.4862 60.5713 44.4101 59.9228C44.2571 61.8011 45.2483 63.6857 47.0472 64.4138C47.1573 64.4566 47.2491 64.4321 47.3286 64.3709C47.4081 65.4906 47.5183 66.6103 47.6774 67.73C47.8915 69.2107 48.2403 70.618 49.1703 71.8172C49.7577 72.5759 50.4735 73.2551 51.2261 73.9036C50.9997 75.8371 51.4219 78.003 51.4953 79.9304C51.5749 81.9985 51.3852 84.1644 51.6728 86.208C51.6483 86.2019 50.2655 86.5445 48.4667 86.9973C48.0322 87.1074 47.5733 87.2176 47.1083 87.3399C47.0594 87.6153 47.0104 87.8845 46.9615 88.1537C47.7385 87.9518 48.3198 87.7988 48.485 87.7438C48.5217 87.7315 48.5462 87.7132 48.5707 87.6948C52.1928 90.3258 56.8001 91.4332 61.2422 90.9376C63.3347 90.7051 65.4334 90.1912 67.2812 89.1694C68.3397 88.582 68.6211 88.0742 68.6211 87.6948C69.288 87.86 69.9611 87.9701 70.6464 88.0558C71.4907 88.1598 76.716 88.6187 77.285 88.7717C79.0104 89.2306 80.5339 89.3591 80.846 91.4149C81.311 94.5047 81.6475 97.5701 81.5496 100.697C81.3722 106.277 80.5951 111.93 80.7481 117.523C80.742 117.596 80.7358 117.676 80.7297 117.749C80.6502 118.642 80.3749 119.621 80.5706 120.502C80.6074 120.668 80.8643 120.704 80.9439 120.551C81.3232 119.829 81.2865 118.973 81.3477 118.171C81.4089 117.351 81.4517 116.525 81.415 115.699C81.6659 113.209 81.7576 110.694 81.9167 108.204C82.1186 104.888 82.4429 101.529 82.3511 98.2003ZM72.9163 53.7736C73.21 53.2597 73.3875 52.5927 73.4181 51.9625C73.4793 51.9136 73.5343 51.8769 73.5894 51.8585C73.6322 51.8463 73.6689 51.8402 73.7118 51.834C73.7179 52.7151 73.5466 53.5534 72.9163 53.7736ZM72.2923 48.2608C73.0877 48.0956 73.3385 49.2153 73.4425 49.717C73.4976 49.9679 73.571 50.3595 73.6261 50.8C73.516 50.8306 73.4058 50.8734 73.3018 50.9224C73.1917 50.5369 72.9959 50.2249 72.7022 50.0535C72.5003 49.9373 72.3167 49.9006 72.1393 49.9067C72.1087 49.87 72.0842 49.8333 72.0536 49.7966C72.1944 49.2948 72.2861 48.7809 72.2923 48.2608ZM39.8823 56.5147C39.6621 55.652 39.9252 54.7403 40.4942 54.1591C40.433 54.7098 40.4514 55.2482 40.5554 55.6948C40.5982 55.8845 40.6594 56.0436 40.7267 56.1904C40.6288 56.582 40.6043 56.9859 40.6533 57.3101C40.69 57.512 40.7451 57.6834 40.8124 57.8363C40.3412 57.561 40.0231 57.0715 39.8823 56.5147ZM42.0605 57.3713C41.8097 57.2122 41.5649 57.0593 41.3141 56.9063C41.3141 56.8941 41.3141 56.888 41.3141 56.8757C41.5711 57.0287 41.8709 57.0837 42.1768 57.0532C42.134 57.1572 42.0911 57.2612 42.0605 57.3713ZM42.293 54.8505C41.9137 54.7281 41.5955 54.826 41.3386 55.0524C41.3324 55.034 41.3141 55.0157 41.3141 55.0034C41.2039 54.6425 41.3508 53.9817 41.4487 53.6268C41.7363 53.5595 42.0605 53.5534 42.4032 53.639C42.4093 53.639 42.4093 53.6451 42.4154 53.6451C42.3236 54.0184 42.2808 54.4467 42.293 54.8505ZM41.877 48.3648C41.7424 48.6157 41.6322 48.8849 41.5588 49.1664C41.3447 48.7258 41.2101 48.2914 41.1978 48.1262C41.1489 47.4409 41.412 46.2906 42.0116 45.6788C42.0177 45.7767 42.0238 45.8746 42.0483 45.9725C42.1034 46.2478 42.2319 46.4926 42.4032 46.6945C42.3665 47.0555 42.3726 47.4165 42.4399 47.753C42.2196 47.8998 42.0238 48.1017 41.877 48.3648ZM65.7699 86.0734C65.7026 86.1162 65.6536 86.2019 65.6659 86.2814C63.659 87.3277 61.5603 87.1136 59.2659 87.0401C56.8919 86.9606 54.3833 87.0157 52.0949 86.3243C52.4559 84.2684 52.2173 82.0107 52.1378 79.9304C52.0766 78.1927 52.1867 76.1491 51.7951 74.387C52.3703 74.8642 52.9454 75.3231 53.4961 75.7942C54.4873 76.6508 55.5397 77.7277 56.9102 77.8684C58.4399 78.0275 59.9206 76.9384 61.1565 76.1981C62.4292 75.4394 63.9404 74.5461 65.2437 73.4692C64.8399 75.6107 64.9684 77.8684 65.0663 80.0283C65.1458 81.8394 64.9255 84.3602 65.7699 86.0734ZM70.5485 61.1648C70.1018 62.0826 69.3982 62.4987 68.664 63.0554C68.7251 62.1254 68.7802 61.1954 68.8353 60.2593C68.8598 60.2593 68.8781 60.2715 68.9026 60.2654C69.0923 60.2348 69.3003 60.1002 69.4777 60.0207C69.6919 59.9228 69.8693 59.8004 70.0529 59.6474C70.1324 59.5801 70.0651 59.4455 69.9672 59.4455C69.5817 59.4455 69.1963 59.5679 68.8659 59.7759C68.8965 59.2681 68.9271 58.7663 68.9577 58.2585C68.9577 58.2157 68.9638 58.1667 68.9699 58.1178C69.0066 58.1117 69.0372 58.0994 69.0555 58.0688L69.0861 58.026C69.1106 57.9832 69.0984 57.9403 69.0678 57.9098C69.2942 57.8975 69.6919 57.8424 69.7041 57.8424C70.9217 57.9526 71.0074 58.4421 71.0074 59.2252C71.0074 59.8922 70.836 60.5774 70.5485 61.1648ZM68.5844 48.9583C68.5171 48.995 68.4559 49.0195 68.3947 49.044C68.511 48.8298 68.615 48.6035 68.6946 48.3893C68.7496 48.3648 68.8047 48.3342 68.8598 48.3036C68.9577 48.3342 69.0494 48.3709 69.1534 48.4138C69.184 48.4688 69.1902 48.53 69.2146 48.5912C69.1229 48.7075 69.0311 48.8421 68.9393 48.9889C68.8292 48.9889 68.7129 48.9828 68.5844 48.9583ZM71.2766 47.0738C71.2827 47.1044 71.2888 47.1289 71.2888 47.1595C71.2582 47.392 71.197 47.5755 71.0747 47.6673C70.9584 47.6184 70.8544 47.5694 70.7626 47.5205C70.7504 47.3369 70.7198 47.1595 70.6892 46.982C70.8605 47.0065 71.0502 47.0371 71.2766 47.0738ZM70.0345 43.1335C69.5083 42.7235 68.8659 42.644 68.2785 42.8276C68.2418 42.6623 68.1989 42.4971 68.1439 42.3381C68.8598 42.2585 69.5206 42.6073 70.0345 43.1335ZM65.8311 41.4142C65.9229 41.2306 65.9718 41.0165 65.9963 40.7962C66.3267 40.9798 66.5898 41.2551 66.7611 41.6467C66.8039 41.7201 66.8406 41.7996 66.8773 41.8731C66.8284 41.9037 66.7856 41.9342 66.7366 41.9648C66.4123 41.8425 66.1125 41.818 65.8494 41.8486C65.8127 41.7446 65.776 41.6467 65.7332 41.5488C65.776 41.4998 65.8066 41.4692 65.8311 41.4142ZM64.5278 38.5752C64.6808 38.8505 64.7848 39.1381 64.8705 39.4318C64.7664 39.4501 64.6624 39.4807 64.5645 39.5174C64.0934 38.7281 63.3898 38.1897 62.4108 38.2815C62.7657 37.7859 63.4632 37.8777 64.5278 38.5752ZM61.9336 39.5113C61.9825 39.5052 62.0315 39.4991 62.0804 39.4991C62.2211 39.597 62.3619 39.756 62.4903 40.0069C62.576 40.1721 62.6188 40.3495 62.6311 40.5331C62.6188 40.5453 62.6066 40.5637 62.5944 40.5759C62.4047 40.5515 62.1967 40.5515 61.9642 40.5759C61.8969 40.2149 61.8846 39.8539 61.9336 39.5113ZM60.4162 38.8811C60.2754 38.9851 60.1408 39.1014 60.0123 39.2298C60.0062 39.083 59.9879 38.9423 59.9634 38.8016C60.1469 38.7893 60.2938 38.8138 60.4162 38.8811ZM60.4223 46.927C60.5997 46.9943 60.7894 47.031 60.9974 47.0249C61.0341 47.1411 61.0831 47.2451 61.1382 47.3369C60.7099 47.3981 60.3183 47.3553 59.8961 47.2635C60.0858 47.1901 60.2632 47.0738 60.4223 46.927ZM55.1971 36.9048C56.2188 36.3908 57.6078 36.6417 58.3787 37.4861C58.5011 37.6207 58.599 37.7675 58.6846 37.9205C57.9198 37.4126 56.9898 37.0088 56.1577 37.2474C55.968 37.3025 55.7844 37.3943 55.6009 37.4983C55.5336 37.4494 55.4601 37.4004 55.3806 37.3576C55.2949 37.223 55.2032 37.0884 55.0992 36.966C55.1359 36.9476 55.1665 36.9232 55.1971 36.9048ZM58.3053 38.3427C58.2013 38.4528 58.1095 38.5629 58.0177 38.6914C57.6934 38.2937 57.2406 38.0612 56.7022 38.1163C56.586 38.0367 56.4575 37.9633 56.329 37.9082C56.7512 37.8348 57.1917 37.8777 57.5405 38.0184C57.8035 38.1163 58.0544 38.2264 58.3053 38.3427ZM55.6009 41.9587C55.6315 42.0811 55.6437 42.2035 55.6621 42.3258C55.558 42.4666 55.4663 42.6256 55.3867 42.7664C55.3867 42.7664 55.3867 42.7725 55.3806 42.7786C55.1236 42.6501 54.8299 42.6073 54.5301 42.6868C54.5607 42.5645 54.5974 42.436 54.6403 42.3136C54.7076 42.2096 54.7749 42.1056 54.8605 42.0138C55.2215 41.7813 55.4601 41.7996 55.6009 41.9587ZM54.4628 39.3461C54.4322 39.3583 54.4016 39.3645 54.3772 39.3767C54.2609 39.4256 54.1324 39.4868 54.0039 39.5541C54.0223 39.5297 54.0345 39.5113 54.059 39.4868C54.1569 39.2176 54.3221 39.0096 54.5301 38.8444C54.4812 39.0035 54.4567 39.1748 54.4628 39.3461ZM54.2181 37.8226C54.3772 37.7798 54.5424 37.7675 54.7014 37.8042C54.7076 37.8165 54.7137 37.8226 54.7198 37.8348C54.4261 37.9511 54.1569 38.1346 53.9244 38.3794C54.0039 38.1836 54.1018 37.9939 54.2181 37.8226ZM52.3458 37.3453C52.8108 37.0455 53.3064 36.966 53.747 37.0822C53.7102 37.1251 53.6858 37.1801 53.6491 37.223C53.1535 37.4065 52.7129 37.7492 52.3458 38.1469C52.0827 38.0918 51.8319 38.104 51.5932 38.1713C51.789 37.8471 52.0276 37.5473 52.3458 37.3453ZM50.4674 38.6241C50.4368 38.7159 50.4185 38.8077 50.4001 38.8994C50.1676 39.1136 49.9535 39.3522 49.7638 39.5847C49.6659 39.701 49.5496 39.8295 49.4273 39.9763C49.0479 39.8539 48.6563 39.8111 48.277 39.8417C48.2097 39.8111 48.1424 39.7805 48.0689 39.7499C48.4422 38.8321 49.519 38.1713 50.4674 38.6241ZM48.3871 40.6738C48.3993 40.6922 48.4116 40.7105 48.4177 40.735C48.3259 40.9614 48.2341 41.1939 48.1363 41.4203C48.0078 41.1939 47.9405 40.9675 47.916 40.735C48.0689 40.7044 48.228 40.6799 48.3871 40.6738ZM48.1118 54.7281C48.1363 54.6975 48.1607 54.6608 48.1791 54.618C48.7114 54.3059 49.103 53.7675 49.3171 53.1679C49.9229 52.4887 50.1921 51.5404 49.9657 50.5308C49.9841 50.5247 49.9963 50.5124 50.0085 50.5063C50.0085 50.5247 50.0024 50.543 50.0085 50.5675C50.6204 52.5254 49.5068 54.4099 47.6835 55.1075C47.6835 55.1013 47.6774 55.0952 47.6774 55.0891C47.8426 55.0157 47.9833 54.8933 48.1118 54.7281ZM47.5856 41.7935C47.3837 41.7201 47.1695 41.6711 46.9554 41.6344C46.8269 41.5916 46.7045 41.561 46.5821 41.5304C46.7657 41.3224 46.9798 41.1511 47.2124 41.0103C47.2797 41.2673 47.4081 41.5427 47.5856 41.7935ZM47.5611 42.8276C47.3592 42.9254 47.1573 43.0356 46.9554 43.158C46.8758 43.1151 46.7841 43.0845 46.6984 43.0478C46.9309 42.8398 47.1634 42.7419 47.3959 42.7297C47.4204 42.7419 47.451 42.7541 47.4754 42.7725C47.506 42.7908 47.5305 42.8092 47.5611 42.8276ZM46.68 50.7082C46.6189 50.8428 46.5638 51.008 46.521 51.21C46.4475 51.2956 46.3741 51.3752 46.2946 51.4547C46.2028 51.5526 46.0927 51.6444 45.9764 51.73C45.8051 51.5832 45.5971 51.522 45.3646 51.5893C45.3034 51.4547 45.2238 51.3078 45.1382 51.1671C45.1688 51.008 45.2116 50.8551 45.2483 50.7205C45.6521 50.9407 46.1661 50.8918 46.68 50.7082ZM43.3271 55.7132C43.2353 55.5602 43.119 55.4195 42.9844 55.291C42.6969 54.4773 42.7213 54.0367 43.0579 53.9817C43.0762 53.9939 43.0885 54.0122 43.1068 54.0306C42.96 54.673 43.015 55.3155 43.3944 55.652C43.376 55.6765 43.3516 55.6948 43.3271 55.7132ZM43.7125 43.1824C43.6514 43.3843 43.5963 43.5985 43.5535 43.8188C43.4494 43.8493 43.3516 43.8738 43.2537 43.9167C43.8777 42.2463 44.7894 40.2516 46.7841 40.1721C46.8391 40.1721 46.9187 40.1721 47.0104 40.1782C46.4231 40.4658 45.903 40.9186 45.5175 41.4815C44.6487 41.6222 44.0124 42.2463 43.7125 43.1824ZM44.8873 46.7128C45.028 46.5231 45.1198 46.2845 45.1688 46.0275C45.3523 46.0704 45.542 46.0949 45.7317 46.0704C45.7745 46.101 45.8296 46.1254 45.8724 46.1499C45.8724 46.2172 45.8663 46.2845 45.8479 46.3579C45.6154 46.5293 45.4135 46.7557 45.2361 47.0126C45.1076 46.9331 44.9852 46.8413 44.8873 46.7128C44.8812 46.7189 44.8873 46.7189 44.8873 46.7128ZM45.2544 61.483C45.1015 60.9874 45.0525 60.4734 45.077 59.9595C45.0831 59.678 45.1198 59.3966 45.1871 59.1151C45.334 58.2279 45.9275 58.1545 46.9676 58.8948C46.9982 59.005 47.1695 59.0111 47.194 58.8948C47.2001 58.8581 47.194 58.8275 47.2001 58.7969C47.2124 58.8031 47.2246 58.8031 47.2368 58.8031C47.2246 59.2558 47.2124 59.7147 47.2124 60.1675C46.7718 59.886 46.0927 59.831 45.6888 60.1308C45.542 60.2409 45.5665 60.5346 45.7929 60.5163C46.0315 60.4979 46.2456 60.4551 46.4842 60.4979C46.729 60.5468 46.9125 60.6692 47.1206 60.7916C47.1512 60.8099 47.1818 60.8222 47.2124 60.8283C47.2185 61.8011 47.2368 62.774 47.2919 63.7468C46.2885 63.3063 45.5848 62.5598 45.2544 61.483ZM47.194 48.4199C47.0716 48.2241 46.9187 48.0773 46.7473 47.9549C46.9798 47.8815 47.2062 47.7774 47.4143 47.6367C47.451 47.6122 47.4755 47.5817 47.506 47.5572C47.5611 47.6612 47.6162 47.7775 47.6468 47.9182C47.6529 47.9488 47.6529 47.9732 47.659 48.0038C47.4999 48.1568 47.347 48.3036 47.194 48.4199ZM49.1642 70.5935C48.3076 69.021 48.1913 67.0876 48.0078 65.3438C47.6651 62.156 47.5366 58.9071 47.6774 55.6948C49.9106 55.2543 51.2812 52.9599 50.8223 50.7633C52.0338 50.5308 52.8842 49.6436 53.0372 48.4199C54.1018 48.5973 55.0624 48.1568 55.6743 47.3247C55.7538 47.3859 55.8334 47.4409 55.919 47.4838C56.3535 47.9182 56.9286 48.1507 57.6445 48.1446C58.4032 48.1384 58.9905 48.0956 59.7615 48.2119C60.3489 48.3036 60.8383 48.3159 61.3645 48.2057C61.4747 49.4172 62.3741 50.2555 63.4754 50.3289C63.5121 51.057 63.8854 51.9197 64.1668 52.3969C64.8582 53.5839 66.5469 54.0428 67.4158 53.0822C67.7829 53.4065 68.2724 53.5228 68.6884 53.4126C68.4865 54.6057 68.511 55.86 68.4315 57.0593C68.3336 58.6562 68.2295 60.2593 68.1316 61.8562C67.9481 64.7686 67.789 67.5403 67.0609 70.3426C66.3512 71.187 65.7087 72.0558 64.8582 72.8023C63.7997 73.7262 62.625 74.4971 61.4196 75.213C60.0185 76.0451 58.2502 77.4157 56.537 77.0669C55.0257 76.7549 53.3615 74.748 52.2173 73.7751C51.1099 72.8268 49.8739 71.9029 49.1642 70.5935ZM66.2716 88.8023C65.4089 89.2061 64.5095 89.5243 63.5917 89.7751C61.9397 90.2218 60.2204 90.4176 58.5072 90.3747C55.1726 90.2952 51.9971 89.2428 49.2315 87.4195C50.0452 87.1747 50.8529 86.9178 51.6544 86.6302C52.4254 87.2788 53.3737 87.4011 54.371 87.4929C56.1883 87.6642 58.0299 87.7315 59.8533 87.7866C61.6215 87.8417 64.8399 88.325 66.2655 86.8015C66.5592 86.9912 66.8651 87.1625 67.1772 87.3216C67.4341 87.4501 67.7645 87.7009 68.0705 87.7438C67.6238 88.0619 66.4001 88.7411 66.2716 88.8023Z" fill="#0A0A28"/>
<path d="M59.5279 65.0144C59.1486 65.3815 58.6774 65.7731 58.1512 65.8893C57.4598 66.0362 56.9153 65.7119 56.383 65.3142C56.2055 65.1796 55.9853 65.4366 56.0893 65.6079C56.9153 66.9723 59.4117 66.8132 59.7176 65.1245C59.7359 65.0144 59.6136 64.9287 59.5279 65.0144Z" fill="#0A0A28"/>
<path d="M61.6323 68.7287C60.3719 68.6124 59.0748 69.1754 57.7776 69.1815C56.5478 69.1876 55.3486 68.8572 54.131 69.157C53.9352 69.2059 53.9903 69.4813 54.1738 69.4935C56.3643 69.6587 59.8702 70.6071 61.718 68.949C61.822 68.8694 61.7363 68.7348 61.6323 68.7287Z" fill="#0A0A28"/>
<path d="M59.4911 71.3476C59.0199 71.5434 58.5121 71.7392 57.9981 71.7881C57.4046 71.8432 56.9274 71.6597 56.389 71.4516C56.1259 71.3476 55.9851 71.7025 56.1748 71.8677C57.1415 72.6753 58.8976 72.5591 59.6563 71.5434C59.748 71.4271 59.6073 71.2987 59.4911 71.3476Z" fill="#0A0A28"/>
<path d="M66.0929 57.2439C66.0684 57.1766 66.0195 57.1154 65.9277 57.091C64.5694 56.7483 63.1988 56.3628 61.816 56.1487C61.7304 56.0814 61.5835 56.0753 61.5224 56.1915C60.6658 57.8191 65.2424 57.8191 66.0072 57.6783C66.2214 57.6416 66.2336 57.3602 66.0929 57.2439Z" fill="#0A0A28"/>
<path d="M66.0745 59.1473C65.0772 58.5232 61.1674 58.2112 61.455 60.2058C61.4673 60.2976 61.6325 60.4567 61.9384 60.3282C62.024 60.2915 62.3422 60.0345 62.8011 59.8448C62.8011 59.8632 62.8011 59.8816 62.8011 59.8999C62.8317 60.0712 62.9173 60.212 63.0275 60.3282C63.0948 60.4322 63.1927 60.524 63.3151 60.5852C63.6026 60.732 63.9575 60.6953 64.2145 60.5179C64.6061 60.3099 64.8263 59.8143 64.5632 59.4166C65.0038 59.4166 65.4443 59.4839 65.8726 59.6185C66.1663 59.7164 66.3254 59.3003 66.0745 59.1473Z" fill="#0A0A28"/>
<path d="M50.2094 57.2439C50.2339 57.1766 50.2828 57.1154 50.3746 57.091C51.7329 56.7483 53.1034 56.3628 54.4862 56.1487C54.5719 56.0814 54.7187 56.0753 54.7799 56.1915C55.6365 57.8191 51.0599 57.8191 50.295 57.6783C50.0809 57.6416 50.0748 57.3602 50.2094 57.2439Z" fill="#0A0A28"/>
<path d="M50.2278 59.1473C51.2252 58.5232 55.1349 58.2112 54.8473 60.2058C54.8351 60.2976 54.6699 60.4567 54.364 60.3282C54.2783 60.2915 53.9602 60.0345 53.5013 59.8448C53.5013 59.8632 53.5013 59.8816 53.5013 59.8999C53.4707 60.0712 53.385 60.212 53.2749 60.3282C53.2076 60.4322 53.1097 60.524 52.9873 60.5852C52.6997 60.732 52.3449 60.6953 52.0879 60.5179C51.6963 60.3099 51.476 59.8143 51.7391 59.4166C51.2986 59.4166 50.8581 59.4839 50.4298 59.6185C50.1422 59.7164 49.9831 59.3003 50.2278 59.1473Z" fill="#0A0A28"/>
</g>
<g clip-path="url(#clip2)">
<path d="M85.7752 60.7126C85.8425 60.8288 86.1729 59.9845 85.9343 60.217C85.8793 60.1558 85.7936 60.1191 85.7079 60.1497C83.2299 61.0613 80.7764 62.7256 78.6716 64.298C76.7688 65.7175 75.025 67.3634 73.685 69.3275C72.1309 71.5913 71.3906 74.1978 70.7298 76.8349C69.9833 79.8208 69.4081 82.8433 68.9676 85.8904C68.8881 86.4472 69.7447 86.6919 69.8242 86.129C70.2036 83.4613 70.693 80.812 71.2988 78.1871C71.9351 75.4277 72.5837 72.5887 74.1133 70.1596C75.545 67.8896 77.5519 66.0418 79.7179 64.4877C81.6513 63.1049 83.8724 62.0954 85.763 60.6697C85.7691 60.682 85.7691 60.7003 85.7752 60.7126Z" fill="#0A0A28"/>
<path d="M111.975 62.4749C111.803 62.1935 111.889 61.8937 112.085 61.704C110.219 60.829 108.187 60.1315 106.278 59.8072C106.229 59.6543 106.077 59.5686 105.93 59.5625C106.181 59.8623 106.364 60.1927 106.486 60.5537C108.365 61.3063 110.298 61.8998 112.134 62.7441C112.079 62.6462 112.03 62.5606 111.975 62.4749Z" fill="#0A0A28"/>
<path d="M79.6384 73.7455C79.6629 73.4641 79.2285 73.4151 79.1551 73.6782C78.6227 75.6423 78.843 77.8694 78.8552 79.8886C78.8736 82.1647 78.8981 84.4408 78.9837 86.7107C79.0082 87.2798 79.8832 87.2798 79.8709 86.7107C79.7669 82.4339 79.2958 78.0163 79.6384 73.7455Z" fill="#0A0A28"/>
<path d="M114.208 80.6164C114.043 78.8909 113.755 77.1778 113.645 75.4523C113.339 75.434 113.046 75.2382 113.033 74.8405C113.033 74.7548 113.039 74.6692 113.039 74.5835C112.911 76.4864 113.217 78.4137 113.382 80.3166C113.505 81.7177 113.596 83.1311 113.657 84.5384C113.713 85.7559 113.553 87.0653 113.939 88.2278C114.018 88.4603 114.349 88.4726 114.422 88.2278C114.783 87.0714 114.563 85.7376 114.502 84.5384C114.435 83.2229 114.337 81.9196 114.208 80.6164Z" fill="#0A0A28"/>
<path d="M97.1804 32.3965C97.1498 32.2619 96.9418 32.2925 96.9418 32.4271C96.9601 35.6332 97.4496 38.8393 97.7188 42.0393C96.7949 42.125 95.8649 42.1984 94.941 42.2596C94.4576 42.2902 94.4515 43.0428 94.941 43.0183C96.0301 42.9632 97.1131 42.8592 98.1899 42.7001C98.3245 42.6818 98.4653 42.4982 98.4469 42.3636C98.0492 39.0474 97.8718 35.6638 97.1804 32.3965Z" fill="#0A0A28"/>
<path d="M99.4131 44.6395C97.6449 46.5118 94.139 45.7164 92.1137 44.817C91.869 44.713 91.661 44.9699 91.8323 45.1841C92.8418 46.4078 94.6835 46.4384 96.152 46.4629C97.651 46.4812 98.942 46.2487 99.8537 44.9822C100.037 44.7191 99.6273 44.4132 99.4131 44.6395Z" fill="#0A0A28"/>
<path d="M96.7703 48.0722C96.4766 48.0477 96.1829 48.1456 95.8954 48.1701C95.7914 48.1762 94.6961 47.6867 94.5921 47.8458C94.3168 48.2618 94.8736 48.5617 95.2101 48.6473C95.7302 48.7819 96.5072 48.7942 96.8988 48.3659C96.9967 48.2496 96.9172 48.0844 96.7703 48.0722Z" fill="#0A0A28"/>
<path d="M110.053 29.7043C110.947 26.7123 110.641 23.8856 109.595 20.967C108.873 18.9418 107.643 17.2592 105.593 16.4454C103.819 15.7418 101.683 15.7295 100.037 16.7575C99.138 16.011 98.1223 15.4236 97.2596 15.0871C93.8271 13.7655 89.899 14.3835 87.0171 16.6657C83.7988 19.2171 82.1957 23.7448 81.2229 27.5873C81.0944 28.089 80.7518 28.8905 80.972 29.4167C81.2596 30.1081 82.4099 30.5915 82.9667 30.9647C83.2114 31.1299 83.4623 31.3073 83.7131 31.4848C82.6118 31.7662 82.1407 33.6385 82.3487 34.9173C82.5261 36.0247 83.1013 37.2607 84.0435 37.9215C84.4168 38.1846 84.9368 38.362 85.3468 38.2274C85.3835 39.4083 85.4202 40.5892 85.463 41.7701C85.5365 43.6974 85.3957 45.4412 86.803 46.9157C87.372 47.5092 88.0083 48.0416 88.6875 48.531C88.2408 51.523 88.0756 54.5762 87.8493 57.5987C87.0416 57.8435 85.3713 58.3207 85.1082 59.2324C84.8083 60.2786 86.4053 61.3066 87.0477 61.8205C89.4584 63.754 92.4015 65.0083 95.4668 65.3815C98.7341 65.7792 102.063 65.1612 104.993 63.6622C105.85 63.2217 107.606 62.4691 107.814 61.3677C108.034 60.1624 106.707 60.2786 106.18 59.5811C106.034 59.3853 105.703 59.3914 105.611 59.5995C105.605 59.5995 105.599 59.5995 105.593 59.6056C105.428 59.6913 105.269 59.7769 105.11 59.8687C104.92 57.9781 104.412 56.0568 104.204 54.1785C103.978 52.1349 103.874 50.079 103.739 48.0232C105.067 46.9708 105.526 45.8939 105.728 44.1502C105.917 42.541 106.101 40.9318 106.284 39.3226C107.777 38.9739 108.977 36.7834 109.185 35.4006C109.325 34.4523 108.952 33.4427 108.224 33.0328C108.45 32.9594 108.658 32.8492 108.836 32.684C109.558 32.0416 109.79 30.5915 110.053 29.7043ZM83.0156 34.8316C82.9177 34.2504 82.881 33.5773 83.0707 33.0144C83.3583 32.1701 83.915 32.011 84.6126 32.1333C84.7961 32.268 84.9858 32.3964 85.1693 32.5249C85.1755 32.7146 85.1877 32.9043 85.1877 33.0817C85.1938 33.3509 85.1938 33.6202 85.2305 33.8832C85.2611 35.1131 85.2917 36.3429 85.3284 37.5788C83.9823 37.2852 83.2542 36.2634 83.0156 34.8316ZM85.1143 31.497C84.3678 30.9831 83.5846 30.5058 82.8626 29.9613C82.5322 29.7104 81.8225 29.3188 81.7307 28.8844C81.6757 28.6213 81.9204 28.0645 81.9877 27.8014C82.8076 24.6137 84.0007 21.1077 86.1667 18.5685C88.2714 16.0966 91.5449 14.824 94.7632 15.2523C96.3173 15.4603 97.8225 16.0293 99.1013 16.9471C100.9 18.232 101.665 19.9024 101.396 22.0316C101.194 20.9792 100.337 20.0921 99.2971 19.6638C97.4493 18.8928 95.3934 19.5475 94.0106 20.8875C90.8106 23.9896 88.1613 29.276 88.7976 33.8527C87.5066 33.149 86.3196 32.323 85.1143 31.497ZM101.445 22.5945C101.426 22.7108 101.481 22.8515 101.61 22.876C102.534 23.0901 103.256 23.3777 103.855 24.0079C103.103 23.5368 102.154 23.2492 101.347 23.1697C101.402 22.9739 101.426 22.7781 101.439 22.5823C101.439 22.5884 101.445 22.5884 101.445 22.5945ZM94.2798 22.723C93.9678 22.7047 93.6619 22.7291 93.3621 22.7903C93.4233 22.7108 93.4783 22.6313 93.5395 22.5517C94.3716 22.3376 95.2037 22.1601 96.0726 22.1051C96.611 22.0683 97.0515 22.0806 97.5716 22.2213C97.8347 22.2947 98.0366 22.411 98.2263 22.5517C97.2473 22.5028 96.195 22.6374 95.2894 22.9372C94.9774 22.7903 94.598 22.7414 94.2798 22.723ZM94.647 23.1819C94.4573 23.2737 94.2737 23.3655 94.1085 23.4756C93.4538 23.7081 92.8175 24.0263 92.2424 24.3934C92.2791 24.3383 92.3158 24.2771 92.3525 24.2221C92.5789 23.8856 92.8298 23.5307 93.0806 23.1697C93.4416 23.0901 93.8087 23.0534 94.182 23.0779C94.3349 23.0963 94.494 23.133 94.647 23.1819ZM97.486 21.7012C96.354 21.4932 95.0263 21.7563 93.8699 22.1295C94.0412 21.9337 94.2125 21.7379 94.3961 21.5544C96.2439 21.1383 99.1441 20.4286 99.6948 22.7781C99.4745 22.7108 99.242 22.6618 99.0034 22.619C98.7586 22.0867 98.0611 21.8052 97.486 21.7012ZM95.0569 20.9792C95.4668 20.6733 95.9196 20.4225 96.4091 20.2817C98.5078 19.6821 101.01 20.7406 101.084 23.1574C101.078 23.1574 101.071 23.1574 101.065 23.1574C100.833 23.0779 100.588 23.0351 100.337 23.0351C100.276 23.0045 100.196 22.9861 100.129 22.9555C99.915 20.5509 97.1005 20.4163 95.0569 20.9792ZM87.8187 58.1739C87.8003 58.3941 87.7881 58.6144 87.7697 58.8347C87.7636 58.8836 87.7758 58.9264 87.7881 58.9693C87.7881 59.0243 87.7942 59.0733 87.8003 59.1222C87.525 59.1283 87.2496 59.263 86.9865 59.3425C86.6806 59.4404 86.3686 59.5444 86.0688 59.6607C85.6894 58.6083 87.4821 58.3819 87.8187 58.1739ZM86.9009 60.7681C86.7479 60.6152 86.6011 60.4622 86.4848 60.3031C86.3869 60.1991 86.3135 60.1012 86.2462 60.0094C86.5582 59.9421 86.8703 59.8503 87.1701 59.7524C87.2741 59.7157 87.3904 59.6851 87.5066 59.6484C87.6841 59.783 87.8615 59.9054 88.0451 60.0278C87.9166 60.1073 87.7942 60.1991 87.7208 60.248C87.4638 60.4132 87.1579 60.5723 86.9009 60.7681ZM87.3598 61.1719C87.5984 61.0496 87.8248 60.8966 88.0328 60.7681C88.1613 60.6886 88.4611 60.5417 88.608 60.3582C88.8405 60.4867 89.0913 60.5968 89.3361 60.7131C89.0974 60.8477 88.8833 61.0312 88.6753 61.2087C88.4856 61.3677 88.2959 61.5329 88.1246 61.7165C87.8554 61.5391 87.5984 61.3616 87.3598 61.1719ZM89.5074 62.5425C89.2321 62.3895 88.9384 62.2182 88.6386 62.0408C88.7976 61.9123 88.9567 61.7716 89.1036 61.6431C89.3605 61.4228 89.6175 61.2025 89.8072 60.915C89.9785 60.9823 90.156 61.0435 90.3334 61.1046C90.0886 61.4962 89.85 61.8939 89.6298 62.3039C89.5869 62.3834 89.5441 62.463 89.5074 62.5425ZM91.3429 63.4297C90.9085 63.2522 90.4864 63.0565 90.0703 62.8423C90.1621 62.6649 90.2416 62.4752 90.3273 62.3161C90.5047 61.9735 90.6638 61.6247 90.8229 61.2698C91.1777 61.38 91.5326 61.4718 91.8936 61.5574C91.7223 61.9551 91.6122 62.3895 91.502 62.8056C91.4531 62.9953 91.3797 63.2094 91.3429 63.4297ZM93.2703 62.9892C93.203 63.3196 93.1173 63.6867 93.0928 64.0415C92.6768 63.9253 92.2668 63.7907 91.863 63.6377C91.9364 63.4113 91.9732 63.1605 92.0282 62.9463C92.1445 62.5241 92.2913 62.102 92.3892 61.6675C92.7808 61.7471 93.1785 61.8205 93.5701 61.8817C93.4355 62.2366 93.3498 62.622 93.2703 62.9892ZM93.6374 64.1761C93.6986 63.7968 93.7169 63.4052 93.7904 63.0259C93.8577 62.6649 93.9494 62.3039 94.0168 61.9429C94.3961 61.9979 94.7693 62.0408 95.1487 62.0836C95.1732 62.6832 95.2833 63.2828 95.3567 63.8763C95.3873 64.0905 95.3873 64.3169 95.4363 64.5127C94.8305 64.4331 94.2309 64.3169 93.6374 64.1761ZM96.7579 64.6228C96.4948 64.6167 96.2378 64.5983 95.9808 64.5739C95.993 64.274 95.9074 63.962 95.8707 63.6744C95.7972 63.1666 95.7544 62.6465 95.6504 62.1448C96.1399 62.1999 96.6233 62.2427 97.1005 62.2916C97.0026 62.775 97.076 63.3746 97.1066 63.754C97.125 64.0048 97.1372 64.3475 97.2351 64.6289C97.0699 64.6228 96.9108 64.6289 96.7579 64.6228ZM97.8041 64.6228C97.7858 64.5555 97.7674 64.4882 97.7491 64.4087C97.6695 64.0477 97.6512 63.6561 97.6328 63.289C97.6206 63.0075 97.6756 62.6649 97.6634 62.3467C97.9816 62.3773 98.3242 62.3957 98.673 62.414C98.7403 62.5547 98.8137 62.6832 98.8565 62.775C99.0768 63.3012 99.1992 63.9498 99.45 64.4882C98.9055 64.5555 98.3548 64.6044 97.8041 64.6228ZM99.8967 64.4087C99.8171 64.0293 99.6458 63.6438 99.5173 63.2951C99.4867 63.2094 99.2909 62.7689 99.1257 62.4324C99.4745 62.4446 99.8355 62.4446 100.196 62.4324C100.325 62.7444 100.698 63.0259 100.876 63.2706C101.004 63.448 101.151 63.8335 101.347 64.1027C100.87 64.219 100.386 64.3291 99.8967 64.4087ZM101.848 63.962C101.726 63.6683 101.536 63.3685 101.383 63.136C101.267 62.9586 101.139 62.7934 100.998 62.6343C100.955 62.5853 100.851 62.4997 100.753 62.4079C101.169 62.3834 101.585 62.3345 102.001 62.2672C102.191 62.4507 102.46 62.6159 102.632 62.775C102.852 62.9953 103.042 63.2339 103.219 63.4909C102.766 63.6622 102.307 63.8213 101.848 63.962ZM104.32 63.0136C104.112 63.1176 103.898 63.1972 103.684 63.289C103.378 62.8484 103.029 62.4752 102.626 62.1448C103.005 62.0591 103.372 61.949 103.727 61.8144C103.935 61.9857 104.186 62.1264 104.388 62.2549C104.559 62.3651 104.785 62.5486 105.018 62.6771C104.779 62.7934 104.547 62.9035 104.32 63.0136ZM105.905 62.1264C105.801 62.2121 105.685 62.2916 105.562 62.3651C105.354 62.1264 104.957 61.9796 104.712 61.8327C104.583 61.7532 104.455 61.6553 104.314 61.5574C104.541 61.4412 104.755 61.3066 104.957 61.1658C105.195 61.3004 105.446 61.4228 105.679 61.5513C105.856 61.6492 106.046 61.7899 106.242 61.8878C106.144 61.9735 106.034 62.0591 105.905 62.1264ZM105.819 60.3643C105.923 60.4744 106.052 60.5723 106.229 60.6825C106.419 60.7559 106.609 60.8415 106.792 60.9333C106.749 61.0924 106.694 61.2392 106.627 61.3739C106.419 61.2087 106.144 61.0985 105.93 60.9884C105.77 60.9088 105.611 60.8354 105.446 60.762C105.575 60.6396 105.703 60.505 105.819 60.3643ZM104.455 60.2603C103.678 60.7008 102.907 61.1108 101.965 61.3066C100.313 61.6492 98.5873 61.5391 96.9169 61.3861C93.9311 61.1169 91.1227 60.7008 88.3877 59.5261C88.559 59.1345 88.6386 58.6205 88.5345 58.2412C88.7793 55.1268 89.1158 51.988 89.1525 48.8614C90.2661 49.6263 91.4653 50.2932 92.6156 50.9234C94.1697 51.7739 95.6137 52.7957 97.4125 52.1043C99.4378 51.3211 101.481 49.7303 103.25 48.4209C103.176 50.4461 103.286 52.4653 103.5 54.4783C103.709 56.3383 103.855 58.4431 104.455 60.2603ZM105.397 40.3016C105.146 42.4125 105.354 45.4289 103.77 47.0136C103.666 47.1177 103.549 47.2156 103.439 47.3196C103.384 47.3379 103.335 47.3746 103.311 47.4358C101.916 48.6534 100.068 49.6018 98.5445 50.5685C97.4798 51.2416 96.5192 51.8473 95.1976 51.4312C94.2615 51.1375 93.3559 50.5318 92.4994 50.0546C90.7433 49.0817 88.9322 48.011 87.4883 46.6098C85.7628 44.9333 86.1605 42.2106 86.0504 39.9773C85.9464 37.946 85.8363 35.9146 85.72 33.8832C85.769 33.5957 85.769 33.302 85.7567 33.0083C85.7567 32.9838 85.7567 32.9532 85.7567 32.9288C86.7296 33.5712 87.7391 34.128 88.816 34.4094C88.8527 34.4217 88.8894 34.4156 88.92 34.4094C89.024 34.5012 89.2198 34.4217 89.2443 34.2626C89.6603 30.9831 90.1192 28.0829 91.7162 25.2683C92.0955 25.0481 92.481 24.8217 92.8726 24.6259C93.1479 24.4852 93.4355 24.3567 93.7169 24.2282C93.7231 24.2282 93.7292 24.2221 93.7353 24.2221C94.8183 24.1181 95.8217 23.6041 96.9169 23.4695C98.1774 23.3165 99.3949 23.6836 100.631 23.549C100.68 23.5429 100.71 23.5246 100.735 23.494C101.53 23.6469 102.289 23.7877 103.029 24.1548C103.653 24.4668 104.137 24.9808 104.724 25.3234C105.055 25.9903 105.305 26.7062 105.501 27.4098C106.027 29.2943 106.095 33.1246 106.199 33.0817C106.211 33.1123 106.235 33.1429 106.254 33.1674C105.96 35.5353 105.679 37.9154 105.397 40.3016ZM108.536 35.6515C108.408 36.092 108.169 36.5081 107.93 36.8997C107.52 37.5788 107.055 38.105 106.401 38.4783C106.603 36.7406 106.805 34.9968 107 33.2592C108.499 33.0083 108.842 34.6236 108.536 35.6515ZM107.092 32.4576C107.514 27.6852 104.785 22.258 101.934 22.3804C103.017 20.4836 102.001 18.5685 100.466 17.1307C104.339 15.8641 107.741 17.6263 109.032 21.6217C109.784 23.9529 110.151 26.2595 109.558 28.6764C109.338 29.5636 109.105 30.9219 108.585 31.6867C108.175 32.2863 107.649 32.3597 107.092 32.4576Z" fill="#0A0A28"/>
<path d="M105.305 32.1214C105.195 31.9929 104.632 31.583 104.596 31.5707C103.225 30.8487 101.175 31.3015 100.007 32.1153C99.9456 32.1581 99.8906 32.4457 99.8294 32.4763C99.8049 32.4885 99.8049 32.5313 99.8294 32.5436C100.386 32.8617 102.326 32.4273 102.577 32.3723C103.329 32.3417 105.104 32.1948 105.214 32.2438C105.287 32.2744 105.361 32.1887 105.305 32.1214Z" fill="#0A0A28"/>
<path d="M104.884 33.5711C104.235 33.3937 103.47 33.5895 102.822 33.7118C102.069 33.8526 101.286 33.9994 100.643 34.4338C100.607 34.4583 100.619 34.5256 100.668 34.5256C101.17 34.5195 101.653 34.4093 102.142 34.3053C102.142 34.3237 102.155 34.342 102.155 34.3604C102.118 34.5929 102.173 34.8315 102.357 35.0212C102.418 35.0824 103.85 35.9879 104.315 34.2074C104.333 34.134 104.29 34.0728 104.253 34.0178C104.468 33.981 104.682 33.9321 104.884 33.8526C105.012 33.8036 105.037 33.6139 104.884 33.5711Z" fill="#0A0A28"/>
<path d="M88.3819 32.1214C88.492 31.9929 89.0549 31.583 89.0916 31.5707C90.4622 30.8487 92.5119 31.3015 93.6806 32.1153C93.7417 32.1581 93.7968 32.4457 93.858 32.4763C93.8825 32.4885 93.8825 32.5313 93.858 32.5436C93.3012 32.8617 91.3616 32.4273 91.1108 32.3723C90.3582 32.3417 88.5838 32.1948 88.4737 32.2438C88.3941 32.2744 88.3268 32.1887 88.3819 32.1214Z" fill="#0A0A28"/>
<path d="M88.7981 33.5711C89.4466 33.3937 90.2115 33.5895 90.86 33.7118C91.6126 33.8526 92.3958 33.9994 93.0382 34.4338C93.0749 34.4583 93.0627 34.5256 93.0137 34.5256C92.512 34.5195 92.0287 34.4093 91.5392 34.3053C91.5392 34.3237 91.5269 34.342 91.5269 34.3604C91.5637 34.5929 91.5086 34.8315 91.325 35.0212C91.2638 35.0824 89.8321 35.9879 89.3671 34.2074C89.3487 34.134 89.3916 34.0728 89.4222 34.0178C89.208 33.981 88.9939 33.9321 88.792 33.8526C88.6757 33.8036 88.6451 33.6139 88.7981 33.5711Z" fill="#0A0A28"/>
</g>
<defs>
<clipPath id="clip0">
<rect width="39.122" height="76.1514" fill="white" transform="translate(9 4)"/>
</clipPath>
<clipPath id="clip1">
<rect width="43.3805" height="84.8336" fill="white" transform="translate(38.9814 35.8169)"/>
</clipPath>
<clipPath id="clip2">
<rect width="45.6627" height="74.0038" fill="white" transform="translate(68.9614 14.4019)"/>
</clipPath>
</defs>
</svg>
