<svg width="124" height="124" viewBox="0 0 124 124" fill="none" xmlns="http://www.w3.org/2000/svg">
<rect width="124" height="124" fill="white"/>
<g clip-path="url(#clip0)">
<path d="M63.932 45.81C64.05 45.5451 63.796 45.2163 63.5058 45.3807C62.3811 46.0292 60.2861 45.8648 59.6784 44.5769C59.3247 43.8279 59.8507 42.4578 59.9595 41.6358C60.3042 39.1148 60.4584 36.6029 60.1409 34.0636C60.1319 33.9723 60.014 33.9723 59.9958 34.0636C59.5877 37.6807 59.3337 41.2704 58.4721 44.8235C58.4268 45.0245 58.4993 45.2437 58.6807 45.3442C60.0956 46.1571 62.8981 48.1027 63.932 45.81Z" fill="#3FA1D9"/>
<path d="M56.5128 49.6097C58.7802 51.674 64.0315 51.9024 66.5891 50.3039C66.8794 50.1212 66.698 49.5915 66.3443 49.7193C63.2425 50.8794 59.7053 50.5414 56.6942 49.29C56.5128 49.217 56.3767 49.491 56.5128 49.6097Z" fill="#3FA1D9"/>
<path d="M63.0337 53.5556C62.4352 53.5099 61.8456 53.6286 61.247 53.6104C60.5849 53.5921 59.9591 53.4551 59.3333 53.2267C59.1157 53.1445 59.0159 53.4642 59.1792 53.583C60.2675 54.3593 62.0452 54.8069 63.1517 53.8661C63.2877 53.7565 63.1698 53.5647 63.0337 53.5556Z" fill="#3FA1D9"/>
<path d="M51.1438 34.2644C52.7854 33.5154 56.0595 33.8625 57.3746 35.1595C57.4562 35.2418 57.4018 35.4062 57.2748 35.4062C56.7851 35.3788 54.8986 35.0043 54.4723 34.8947C54.6174 35.2052 54.1912 36.2922 53.9553 36.4109C53.8556 36.5114 53.7377 36.6027 53.5835 36.6575C52.4861 37.1234 51.5338 36.0364 51.8875 35.0682C51.5519 35.1961 51.2254 35.3605 50.917 35.5614C50.5361 35.8081 50.2005 35.2052 50.5633 34.9586C50.5996 34.9403 51.0712 34.3009 51.1438 34.2644Z" fill="#3FA1D9"/>
<path d="M68.4938 35.2874C68.4848 35.1687 68.4757 35.0499 68.4938 34.9221C68.5211 34.7668 68.5755 34.6298 68.648 34.5019C68.122 34.648 67.6141 34.7942 67.1062 34.7211C67.0064 34.7028 66.9883 34.5841 67.0246 34.511C67.4962 33.5154 69.2376 33.3967 70.208 33.4515C71.4778 33.5154 72.8291 33.9447 73.7179 34.8947C73.9719 35.1687 73.6273 35.6985 73.2917 35.4518C72.6749 35.1047 72.0854 34.7942 71.4687 34.5841C71.7408 35.1321 71.5322 35.7624 71.0696 36.1369C70.9154 36.2648 70.734 36.3378 70.5436 36.3926C68.9836 36.7763 68.3941 35.6802 68.4938 35.2874Z" fill="#3FA1D9"/>
<path d="M65.4285 30.7939C66.1269 31.1592 67.1064 30.9765 67.8229 30.7939C68.4941 30.6294 69.1471 30.3737 69.8092 30.1819C69.8545 30.1727 69.8908 30.1636 69.9361 30.1545C70.2354 30.0997 70.5347 30.0449 70.834 29.9992C71.3057 29.9535 71.7682 29.9444 72.267 29.8987C72.3396 29.8896 73.2828 29.8439 73.5096 29.8074C73.6003 29.7891 73.6093 29.6521 73.5368 29.6156C73.3373 29.5151 72.911 29.305 72.8475 29.2685C70.834 28.2363 67.5599 29.2502 65.5192 30.1088C65.3923 30.0083 65.1746 30.0266 65.1292 30.2184L65.093 30.3554C65.093 30.3646 65.093 30.3828 65.093 30.392C65.0567 30.5929 65.2199 30.8213 65.4285 30.7939Z" fill="#3FA1D9"/>
<path d="M89.6442 66.0966C89.0003 65.9322 79.6042 64.4434 79.5588 64.5986C79.459 64.1967 79.2867 63.8131 78.9874 63.4752C77.5091 61.7488 72.811 59.4836 72.7566 59.511C72.7566 59.5018 72.7566 59.4927 72.7657 59.4927C72.684 57.9582 72.5933 56.4328 72.3122 54.9257C72.3031 54.8891 72.285 54.8709 72.2578 54.8435C73.1466 53.4186 73.8994 51.9114 74.5252 50.4591C75.4684 48.2761 76.1305 46.0474 76.6021 43.7821C79.4137 42.6495 79.9579 38.0916 79.8672 35.461C79.849 34.9312 79.84 34.164 79.5679 33.6068C82.2525 27.4139 80.7288 20.536 75.8765 16.1607C75.9854 15.9324 75.7224 15.5944 75.414 15.7314H75.4049C75.0421 15.43 74.6612 15.1377 74.2621 14.8637C74.4526 14.1787 74.6612 13.4936 74.8426 12.8085C74.9696 12.3244 75.0149 11.9225 74.6793 11.5206C74.507 11.3197 74.2168 11.3836 74.0445 11.5206C73.4368 12.0047 72.9833 12.5985 72.675 13.3109C72.5661 13.4114 72.4845 13.5575 72.421 13.7128C67.9315 11.4658 63.0158 10.5798 57.9912 11.1827C57.6194 11.2284 57.3745 11.6485 57.6738 11.9591C58.1545 12.4523 58.6352 12.8451 59.1612 13.1922C54.6989 14.2335 50.1097 16.3434 47.1077 19.8509C44.1328 23.3218 43.5705 29.2133 44.3233 33.5794C44.3324 33.6342 44.3596 33.6799 44.3777 33.7255C43.5433 34.3558 43.4435 35.6985 43.4073 36.6576C43.3528 38.3108 44.1056 43.9831 46.8991 42.6495C47.0079 43.9191 47.5884 46.632 47.6791 46.5132C48.0781 48.3766 48.6314 50.2125 49.3388 51.9936C49.9465 53.5282 50.7264 55.492 51.8057 57.1452C51.8511 57.3462 52.1413 57.6476 52.2592 57.7664C52.3318 58.7802 52.0778 60.2965 52.0688 61.3104C52.0688 61.5753 52.0506 61.8493 52.0506 62.1233C51.9781 61.9589 51.9146 61.7945 51.8239 61.6392C51.8148 61.6301 51.8148 61.6118 51.8057 61.6027C51.8057 61.5935 51.7967 61.5935 51.7967 61.5844C51.7876 61.5753 51.7785 61.5753 51.7695 61.5661C51.6425 61.4017 51.4248 61.2921 51.189 61.4109C48.8309 62.5343 46.4909 63.6944 44.16 64.8818C43.9968 64.964 40.124 66.2336 40.1059 66.2884C40.1059 66.2884 35.7525 67.3115 34.2379 67.6951C33.3762 67.9143 32.1156 68.0878 31 68.4258C31.1905 68.5354 31.3446 68.7181 31.4081 68.983C31.4535 69.2022 31.5079 69.4306 31.5532 69.6498C32.4149 69.2753 33.4488 69.0743 34.5462 68.782C36.4327 68.2797 43.3347 66.5442 44.2961 66.2793C45.6475 69.9421 46.4819 73.751 47.8242 77.3955C48.5951 79.5054 49.9374 78.7656 51.4067 77.8796C51.0439 78.6012 50.3365 79.6059 50.4453 80.4188C50.5632 81.3688 52.2411 82.5105 52.8578 83.0951C55.2522 85.3238 57.8915 87.2237 60.7212 88.8496C60.9026 88.9592 61.084 88.9135 61.2109 88.813C61.2563 96.7323 61.3016 104.661 61.347 112.58C61.347 113.164 62.254 113.164 62.2449 112.58C62.1995 104.496 62.1542 96.4034 62.1088 88.3106C62.127 88.3015 62.1451 88.3015 62.1633 88.2924C66.816 85.8262 70.5617 82.1726 74.244 78.4641C74.2894 78.4459 74.3347 78.4185 74.3801 78.3728C74.888 77.8704 75.4231 77.295 75.5319 76.5551C75.6226 75.9797 75.3686 75.5321 75.151 75.0571C75.7768 75.1667 76.6747 75.3586 77.2188 75.185C77.9263 74.9567 77.7993 74.774 78.1077 74.162C78.7335 72.9198 78.7244 70.6454 78.9602 69.2844C79.1597 68.1701 79.6042 66.9004 79.6586 65.713C79.8672 65.7495 80.0848 65.7495 80.3025 65.7404C80.366 65.7861 80.4386 65.8226 80.5383 65.8226C82.189 65.9322 88.0661 66.8365 89.3631 67.1836C90.1431 67.3937 90.8958 67.5581 91.5761 67.7682C92.0386 67.4393 92.5102 67.1379 93.0181 66.8548C91.8572 66.4985 90.5421 66.325 89.6442 66.0966ZM78.8332 38.53C78.5611 39.8819 78.0623 41.8914 76.8016 42.7591C77.3458 39.7905 77.5635 36.7763 77.627 33.7347C77.6451 33.7347 77.6633 33.7255 77.6905 33.7164C77.7449 33.7621 77.8174 33.7712 77.8809 33.7164C77.9988 33.6159 78.1077 33.5611 78.2074 33.5246H78.2165C78.2891 33.6159 79.1688 33.8717 79.1053 36.1735C79.0781 36.9681 78.9874 37.7536 78.8332 38.53ZM69.4824 23.1574C68.249 23.8334 67.0155 24.5093 65.7639 25.1487C67.8499 23.8973 70.0357 22.7007 72.031 21.3398C71.4415 21.833 70.8066 22.2806 70.0992 22.6459C69.9541 22.719 69.8906 22.8286 69.8815 22.9473C69.8362 22.9747 69.7817 23.0022 69.7364 23.0296C69.7183 23.0204 69.7092 23.0113 69.691 23.0113C69.6004 22.9656 69.4643 23.0204 69.4734 23.1392C69.4824 23.1392 69.4824 23.1483 69.4824 23.1574ZM73.3098 20.0793C73.2554 20.0062 73.1829 19.9605 73.065 19.997C69.9087 20.9287 67.0155 23.1118 64.3128 24.9386C62.3628 26.2539 60.1679 26.9115 58.0819 27.7975C63.5963 24.7376 69.038 21.5133 74.507 18.3895C74.1714 19.0014 73.7542 19.5586 73.3098 20.0793ZM74.507 20.0153C79.0509 22.6916 78.6518 28.1081 78.6609 32.7299C78.6337 32.7299 78.6156 32.7299 78.5884 32.7299C78.6428 28.921 77.6995 22.171 73.6363 21.084C73.9447 20.7552 74.2349 20.3898 74.507 20.0153ZM72.1399 22.4267C72.1489 22.4906 72.1761 22.5546 72.2578 22.6003C75.2961 24.2718 75.8131 27.5144 76.5477 30.6291C75.2145 27.8158 73.1738 25.0664 70.6161 23.5045C71.1331 23.1666 71.641 22.8012 72.1399 22.4267ZM75.9128 25.6054C75.2961 24.0252 74.2259 22.5089 72.5026 22.1618C72.6931 22.0157 72.8926 21.8695 73.0831 21.7142C73.1284 21.6777 73.1375 21.6412 73.1466 21.6046C73.2282 21.5224 73.3008 21.4402 73.3824 21.358C77.5091 23.2214 77.4909 28.6287 78.0351 32.602C77.8809 32.529 77.7267 32.4468 77.5907 32.328C77.2823 30.0993 76.6928 27.6148 75.9128 25.6054ZM75.8584 17.6131C75.8675 17.6039 75.8765 17.6039 75.8947 17.5948C75.94 17.5674 75.9763 17.54 76.0035 17.5034C79.6767 21.2849 80.9646 26.7471 79.2867 31.8713C79.9125 27.5692 78.8242 21.5681 74.7973 19.6134C75.2054 18.9923 75.5682 18.3255 75.8584 17.6131ZM75.2417 16.7727C75.1872 16.9371 75.1147 17.0924 75.0421 17.2568C68.0585 20.6273 61.4105 24.8198 54.9348 29.0763C54.7987 29.0672 54.6627 29.058 54.5176 29.0489C57.6194 26.4548 60.694 24.1256 64.2583 22.0979C67.7683 20.0975 71.378 18.2981 75.0512 16.6266C75.1147 16.6723 75.1782 16.7179 75.2417 16.7727ZM54.8622 26.875C54.309 27.5692 53.792 28.2999 53.3839 29.0489C52.2864 29.1128 51.4157 29.2955 51.4248 29.3412C51.2797 29.3595 51.1437 29.3686 51.0076 29.3869C52.2411 28.51 53.5652 27.7519 54.8622 26.875ZM53.8464 26.1169C55.3973 24.2901 57.4743 22.8377 59.6056 21.6229C58.6805 22.4267 57.837 23.3858 57.048 24.3083C56.9845 24.3083 56.9119 24.3175 56.8394 24.354C55.9233 24.9386 54.8894 25.514 53.8464 26.1169ZM74.507 16.1607C70.5255 17.9602 66.6346 19.9605 62.8616 22.171C60.6486 23.468 58.3177 24.8472 56.2952 26.537C56.6489 26.0895 57.0026 25.6419 57.3745 25.2126C58.5898 23.8334 60.05 22.6185 61.1293 21.1388C61.2109 21.0201 61.1747 20.8922 61.084 20.8008C61.5465 20.5634 62 20.3259 62.4535 20.0975C66.0904 18.289 69.9087 16.9828 73.6908 15.567C73.9719 15.7588 74.244 15.9598 74.507 16.1607ZM69.2648 13.3657C70.0176 13.6306 70.7522 13.932 71.4868 14.27C68.4485 15.3295 65.4918 16.654 62.526 17.8871C59.6691 19.0745 56.9119 20.2711 54.4269 22.1527C52.2229 23.8242 50.1006 25.7698 48.3321 27.9071C47.5339 28.8753 46.2551 30.3094 45.7109 31.7343C46.6723 26.7014 51.2343 22.2714 55.1161 19.5038C59.2156 16.5809 64.2039 14.3065 69.165 13.4388C69.2104 13.4388 69.2466 13.4023 69.2648 13.3657ZM59.0705 12.0047C59.8233 11.9499 60.5761 11.9225 61.3288 11.9317C61.2654 11.9591 61.2109 11.9956 61.1565 12.023C60.7847 12.2148 60.431 12.4523 60.0863 12.6989C59.7326 12.4797 59.3879 12.2605 59.0705 12.0047ZM48.7039 19.4947C50.8534 17.4669 53.4745 16.0055 56.2589 15.0007C51.8964 17.7957 47.9874 21.8147 45.2665 26.2995C45.7744 23.6872 46.8628 21.2393 48.7039 19.4947ZM45.067 27.5783C48.5588 22.6916 52.4043 18.6635 57.1205 14.9002C57.1931 14.8363 57.1931 14.7541 57.1477 14.681C58.2542 14.3248 59.3698 14.0416 60.4944 13.8224C60.8663 13.7494 60.9389 13.1648 60.6033 12.9912C60.5761 12.973 60.5489 12.9547 60.5217 12.9456C60.8209 12.7811 61.1293 12.6441 61.4649 12.5163C61.8458 12.3792 62.4263 12.3244 62.6893 11.9773C64.7662 12.1144 66.7978 12.5254 68.775 13.183C63.0067 14.3431 57.8552 16.3617 53.1753 20.0975C50.9623 21.8604 48.9397 23.8973 47.3979 26.2904C46.4637 27.7427 45.2937 29.7705 44.9763 31.6978C44.8675 30.3642 44.9037 28.9667 45.067 27.5783ZM44.3958 36.9773C44.3868 35.5341 44.3142 35.0408 46.1281 34.5385C46.2551 34.5019 46.4547 34.5111 46.636 34.4928C46.6088 37.0503 46.6633 39.5987 46.8537 42.1289C44.8856 41.389 44.414 38.9045 44.3958 36.9773ZM46.3005 33.2962C46.2914 33.3236 46.2914 33.3419 46.2914 33.3693C46.1916 33.3602 46.0919 33.3419 46.0012 33.3328C45.9468 33.3328 45.9014 33.3145 45.847 33.3054C45.8198 31.917 47.6337 29.8984 48.3774 28.985C49.1483 28.0441 49.9737 27.1581 50.8353 26.2995C52.7399 24.4271 54.7896 22.6551 57.0843 21.2849C61.7188 18.5082 67.3511 16.5535 72.4573 14.8272C72.4754 14.818 72.4845 14.8089 72.5026 14.7998C72.6568 14.8454 72.8473 14.7906 72.8836 14.5988C72.8926 14.5714 72.9017 14.5532 72.9108 14.5257C72.9652 14.4527 73.0015 14.3705 73.0105 14.2791C73.0559 14.1969 73.1012 14.1147 73.1466 14.0325C73.2736 14.0234 73.3915 13.9686 73.4549 13.8042C73.5729 13.521 73.727 13.2652 73.8903 13.0186C73.8268 13.183 73.7724 13.3201 73.7542 13.3931C73.6273 13.8681 73.5003 14.3339 73.3643 14.8089C73.3552 14.8363 73.3552 14.8728 73.3552 14.9002C69.165 16.316 64.9658 17.9053 61.0568 20.0062C58.0638 21.6138 54.6355 23.5776 52.9304 26.6558C50.1097 28.3273 47.3072 30.3003 46.3005 33.2962ZM47.416 38.5849C47.3979 36.8768 47.4251 35.1687 47.4614 33.5154C47.3616 33.5063 47.2709 33.488 47.1712 33.4789C48.1053 31.7708 49.366 30.5834 50.7537 29.5695C50.7718 29.5878 50.7899 29.5969 50.8171 29.5969C51.2343 29.6243 51.6516 29.6609 52.0597 29.6974C52.4134 29.7979 52.7853 29.8344 53.1662 29.8618C53.2478 29.9623 53.3929 30.008 53.5199 29.8892C53.538 29.8892 53.5471 29.8892 53.5652 29.8892C53.3566 30.0354 53.4655 30.4099 53.7285 30.3916C54.2273 30.3642 54.7352 30.2911 55.2431 30.1998C56.2317 30.5743 57.1024 31.2502 58.1001 31.4786C58.3812 31.5425 58.5989 31.2502 58.4719 30.9944C58.4628 30.9762 58.4447 30.9488 58.4266 30.9305C58.4175 30.9031 58.3994 30.8848 58.3903 30.8574C58.1998 30.3642 57.7826 29.9897 57.2566 29.7248C59.4424 29.0672 61.6281 28.0533 63.5509 27.2129C65.6823 26.2721 67.8227 25.2491 69.818 24.016C70.462 25.0299 71.904 25.8063 72.6568 26.6101C74.5342 28.6013 75.8675 30.9579 76.6928 33.5703C76.7472 33.7529 76.8742 33.8443 77.0193 33.8808C76.8561 38.594 76.2121 43.298 74.6975 47.7372C72.4482 54.3046 67.5143 62.3973 59.5421 60.8628C57.9912 60.5614 56.6398 60.0773 55.4608 59.4379C48.1416 53.4916 47.4614 38.6123 47.416 38.5849ZM64.9386 67.8595C64.9658 67.8778 64.9839 67.9052 65.0111 67.9326C64.993 67.96 66.4895 68.8186 66.8432 68.7729C67.3602 68.709 67.9678 68.2797 68.5211 67.8321C69.4643 66.7817 70.4438 65.7769 71.5231 64.9457C71.1694 71.1752 68.376 76.6282 65.0021 81.7159C65.0202 79.2862 65.0111 76.8565 65.0111 74.4269C65.002 72.2987 65.2016 70.006 64.9386 67.8595ZM67.2695 67.3937C66.6799 67.6586 66.7706 67.7408 66.1358 67.4028C65.8002 67.2292 65.4646 66.7908 65.1834 66.5259C64.5123 65.8774 63.9046 65.1832 63.2425 64.5256C66.0904 64.2424 69.3011 63.603 71.6138 61.8036C71.632 62.4887 71.6501 63.1646 71.6682 63.8496C71.6047 63.9227 71.5685 64.0141 71.5594 64.1328C71.5594 64.1328 71.5594 64.1328 71.5594 64.1419C70.1083 65.1101 68.8929 66.6538 67.2695 67.3937ZM59.1975 81.8072C56.9482 76.6739 55.1252 71.367 53.7376 65.9139C55.1887 67.3663 56.921 68.5537 58.6805 69.5584C58.6987 69.5676 59.1068 69.4397 59.2973 69.3575C58.7259 73.413 58.5989 77.7425 59.1975 81.8072ZM58.7621 68.4806C56.6489 67.2658 54.8531 65.7587 53.0211 64.1785C52.9939 64.0963 52.9757 64.0232 52.9485 63.941C52.9939 63.5026 52.9485 62.1598 52.9757 61.5022C55.2522 63.0458 58.3994 64.4251 61.1928 64.7722C60.6577 65.375 60.177 66.1149 59.7326 66.8456C59.7054 66.873 59.6872 66.9004 59.6782 66.937C59.3607 67.485 59.0524 68.0148 58.7621 68.4806ZM57.5015 62.58C55.9687 62.0411 54.4994 61.3469 53.0029 60.7349C53.0211 60.1504 53.0211 59.5749 52.9576 59.0177C55.1161 60.6893 57.9187 61.694 60.5398 62.0046C65.3286 62.5617 68.9111 59.6936 71.505 55.9944C71.4868 56.0492 71.4687 56.104 71.4778 56.1679C71.514 57.5928 71.5594 59.0086 71.5957 60.4335C68.7478 62.2055 62.263 63.8862 62.2086 63.9227C60.6758 63.3838 59.0342 63.1189 57.5015 62.58ZM48.6858 77.1397C48.2867 76.6191 48.2232 75.3038 48.0509 74.6918C47.5702 72.9289 47.0351 71.1934 46.4365 69.4671C46.1281 68.5811 45.6112 67.6129 45.4389 66.6995C45.2121 65.512 45.0851 65.6582 46.1735 64.8544C47.6156 63.7857 49.6472 63.0824 51.3069 62.3243C51.4339 62.8814 52.7762 66.0418 52.8397 66.0144C53.5471 68.8186 54.3634 71.5862 55.2975 74.3081C54.2273 74.9749 51.9236 76.4364 51.8964 76.5186C51.8783 76.5277 51.8692 76.5277 51.8511 76.5368C50.8625 77.094 49.6562 78.4002 48.6858 77.1397ZM55.098 83.8624C54.2727 83.1773 53.4836 82.4557 52.7127 81.6976C51.579 80.5832 51.5881 79.5968 52.2411 78.1992C52.3862 77.8978 52.1867 77.6238 51.9418 77.5416C52.0597 77.4685 52.5132 77.1032 52.5313 77.094C53.5562 76.4546 54.5901 75.8244 55.615 75.185C57.175 79.5876 59.0161 83.8806 61.1656 88.0458C59.0252 86.8218 56.9936 85.4426 55.098 83.8624ZM61.5012 86.7031C61.1747 86.0637 60.8663 85.406 60.5579 84.7575C60.5851 84.7027 60.5942 84.6479 60.5942 84.5748C60.431 81.6428 59.9593 78.7656 59.9049 75.8244C59.8596 73.2395 59.9865 70.6637 60.1679 68.0878C60.8754 66.937 61.6644 65.6491 62.5532 64.8635C62.5623 64.8635 62.5805 64.8635 62.5895 64.8635C62.9432 65.4481 63.5146 66.2884 64.1676 67.0557C63.7323 69.4306 64.0044 72.0338 64.0044 74.4269C64.0044 77.3041 64.0135 80.1813 64.0497 83.0677C64.0497 83.086 64.0588 83.1042 64.0588 83.1134C63.2244 84.3191 62.3628 85.5156 61.5012 86.7031ZM73.8631 77.5964C73.8177 77.6147 73.7633 77.6512 73.718 77.6969C70.1989 81.2409 66.6346 84.7301 62.263 87.178C65.2651 83.0403 68.2671 78.7564 70.2262 74.0707C71.514 74.4086 72.811 74.6735 74.117 74.8836C74.2712 75.3129 74.5614 75.7057 74.6159 76.1532C74.7066 76.7287 74.2621 77.2036 73.8631 77.5964ZM77.9353 69.9238C77.7812 70.8098 77.627 71.6958 77.4728 72.5818C77.2823 73.687 77.364 74.0707 76.2393 74.2442C75.8312 74.3081 71.632 73.5226 70.5708 73.2212C71.6138 70.5358 72.3122 67.7134 72.4482 64.7174C72.5389 64.6443 72.5298 61.7031 72.4936 60.3696C72.5117 60.2874 72.548 60.2143 72.5661 60.1321C72.6115 60.2234 72.675 60.2965 72.7747 60.3422C72.8201 60.4609 72.9017 60.5705 73.0468 60.6253C74.5614 61.2008 76.5477 62.0868 77.6179 63.3747C79.2323 65.3202 78.3253 67.6586 77.9353 69.9238Z" fill="#3FA1D9"/>
<path d="M77.8448 32.6572C76.7928 33.2144 75.6953 33.8355 74.743 34.5753C74.6614 33.7259 74.4528 32.9221 74.0084 32.5019C73.3554 31.8808 71.7682 31.9721 70.9247 31.963C69.0292 31.9265 67.1064 32.1091 65.2834 32.6298C65.1111 32.6755 65.0476 32.8033 65.0476 32.9312C64.6032 33.4792 64.4218 34.4018 64.4581 35.3609C63.152 34.1004 60.4946 33.9451 59.0707 35.1234C59.0163 34.1278 58.8258 33.0956 58.3088 32.6024C57.6558 31.9813 56.0686 32.0726 55.2252 32.0635C53.3296 32.0269 51.4069 32.2096 49.5839 32.7303C49.4115 32.7759 49.348 32.9038 49.348 33.0317C49.1304 33.3057 48.9762 33.6619 48.8764 34.073C48.305 33.6528 47.7246 33.2783 47.2167 32.7577C46.7451 32.2736 46.0014 33.0225 46.473 33.5067C47.0988 34.146 47.8788 34.8037 48.7495 35.0686C48.7041 36.5666 49.2301 38.2655 50.1734 38.8044C51.425 39.526 53.5291 39.5443 54.9349 39.5625C58.4721 39.5991 58.9619 37.8545 59.0344 37.0598C59.0616 36.804 59.0798 36.4661 59.0888 36.0916C62.2723 34.2008 64.4127 36.5574 64.5941 36.4661C64.8027 37.4617 65.2471 38.3568 65.882 38.7131C67.1336 39.4347 69.2377 39.4255 70.6435 39.4712C71.6231 39.5077 74.5253 39.3798 74.743 36.9685C74.7793 36.5757 74.8156 35.9911 74.7974 35.3791C76.0218 34.9042 77.219 34.1917 78.3164 33.4792C78.8062 33.1413 78.3709 32.3832 77.8448 32.6572ZM57.9188 37.9549C57.7465 38.0645 57.5742 38.2016 57.42 38.3294C56.5584 38.6126 55.4973 38.6126 54.6175 38.6217C53.638 38.6309 51.8603 38.7313 50.9897 38.2381C48.9581 37.1055 50.0373 35.0868 49.8106 33.3696C51.9148 33.0774 54.0824 32.7303 56.2138 32.9221C56.6854 32.9677 57.5289 32.9403 57.8735 33.3422C58.1456 33.6619 58.1365 34.7489 58.1728 35.1325C58.2544 36.119 58.2363 37.0415 57.9188 37.9549ZM73.6184 37.8545C73.4461 37.9641 73.2737 38.1011 73.1196 38.229C72.2579 38.5121 71.1968 38.5121 70.317 38.5212C69.3375 38.5304 67.5599 38.6309 66.6892 38.1376C64.6576 37.005 65.7369 34.9864 65.5101 33.2692C67.6143 32.9769 69.7819 32.6298 71.9133 32.8216C72.3849 32.8673 73.2284 32.8399 73.573 33.2418C73.8451 33.5615 73.8361 34.6484 73.8723 35.032C73.963 36.0185 73.9358 36.9502 73.6184 37.8545Z" fill="#3FA1D9"/>
<path d="M62.6079 71.7051C62.5263 71.4128 62.2995 71.2393 62.0456 71.1845C61.973 71.0932 61.8551 71.0475 61.7281 71.1023C61.4107 71.2302 61.1295 71.2758 61.0479 71.6595C60.9844 71.9792 61.1114 72.308 61.3654 72.5089C61.9458 72.9474 62.7984 72.4267 62.6079 71.7051Z" fill="#3FA1D9"/>
<path d="M62.2994 77.7975C61.8096 77.697 61.3108 77.9801 61.202 78.4825C61.1385 78.7474 61.202 79.0123 61.338 79.2132C61.3562 79.3868 61.4741 79.5512 61.6101 79.6426C62.6168 80.3459 63.7052 78.0806 62.2994 77.7975Z" fill="#3FA1D9"/>
</g>
<defs>
<clipPath id="clip0">
<rect width="62" height="102" fill="white" transform="translate(31 11)"/>
</clipPath>
</defs>
</svg>
